reproduction/Observation of temporal reflection/data/Time_Interface_Source_Data/3cd_raw/tau_15.csv

Model,DPO4104
Firmware Version,2.48

Point Format,Y,,
Horizontal Units,S,,
Horizontal Scale,2e-06,,
Sample Interval,2e-10,,
Record Length,100000,,
Gating,0.0% to 100.0%,0.0% to 100.0%,0.0% to 100.0%
Probe Attenuation,1,1,1
Vertical Units,V,V,V
Vertical Offset,0,0,0
Vertical Scale,0.1,0.1,1
Label,,,
TIME,CH1,CH2,CH3
-9.86240e-06,0.00864062,0.00615625,0.830156
-9.86220e-06,0.00832812,0.00639063,0.829531
-9.86200e-06,0.00885938,0.00620313,0.831094
-9.86180e-06,0.00896875,0.0061875,0.8325
-9.86160e-06,0.00867187,0.00596875,0.830313
-9.86140e-06,0.00840625,0.00629688,0.829062
-9.86120e-06,0.0084375,0.0061875,0.830469
-9.86100e-06,0.00839062,0.00626562,0.826562
-9.86080e-06,0.00857812,0.006,0.828906
-9.86060e-06,0.00823438,0.00645313,0.826562
-9.86040e-06,0.00790625,0.00615625,0.825937
-9.86020e-06,0.00801562,0.00582813,0.827031
-9.86000e-06,0.00859375,0.005875,0.832969
-9.85980e-06,0.00829687,0.00592188,0.8275
-9.85960e-06,0.0080625,0.00601562,0.823594
-9.85940e-06,0.00798438,0.00573438,0.824375
-9.85920e-06,0.00803125,0.00571875,0.824531
-9.85900e-06,0.00759375,0.005625,0.825781
-9.85880e-06,0.00742187,0.00559375,0.828125
-9.85860e-06,0.0076875,0.00514063,0.825312
-9.85840e-06,0.00801562,0.00484375,0.824062
-9.85820e-06,0.00814062,0.00520313,0.826406
-9.85800e-06,0.00754687,0.00489063,0.823906
-9.85780e-06,0.00767187,0.00471875,0.82375
-9.85760e-06,0.00732812,0.0043125,0.821094
-9.85740e-06,0.00707812,0.00440625,0.8225
-9.85720e-06,0.00789062,0.00479688,0.824375
-9.85700e-06,0.00692187,0.00415625,0.819375
-9.85680e-06,0.00729687,0.00390625,0.8175
-9.85660e-06,0.00745312,0.00396875,0.818594
-9.85640e-06,0.00757812,0.00403125,0.820937
-9.85620e-06,0.00728125,0.0040625,0.822344
-9.85600e-06,0.00732812,0.00407813,0.820781
-9.85580e-06,0.00710938,0.00378125,0.820156
-9.85560e-06,0.00717187,0.0038125,0.820469
-9.85540e-06,0.00690625,0.00332813,0.818437
-9.85520e-06,0.00685938,0.003375,0.815
-9.85500e-06,0.007125,0.00332813,0.817344
-9.85480e-06,0.007,0.00367188,0.818437
-9.85460e-06,0.00689062,0.003,0.816406
-9.85440e-06,0.00671875,0.00310937,0.814219
-9.85420e-06,0.00684375,0.00301562,0.813125
-9.85400e-06,0.00660938,0.00289063,0.814688
-9.85380e-06,0.00689062,0.00278125,0.8125
-9.85360e-06,0.0068125,0.0029375,0.820312
-9.85340e-06,0.0068125,0.002875,0.811406
-9.85320e-06,0.00648438,0.002625,0.809375
-9.85300e-06,0.006625,0.00270313,0.812812
-9.85280e-06,0.00657812,0.00217188,0.811094
-9.85260e-06,0.00648438,0.00234375,0.806094
-9.85240e-06,0.00626562,0.00225,0.808281
-9.85220e-06,0.00703125,0.00257813,0.810469
-9.85200e-06,0.00684375,0.00257813,0.814688
-9.85180e-06,0.00621875,0.0021875,0.804375
-9.85160e-06,0.00645312,0.00235937,0.807656
-9.85140e-06,0.00676562,0.00264063,0.808437
-9.85120e-06,0.00623438,0.00232813,0.805469
-9.85100e-06,0.00629687,0.00209375,0.805312
-9.85080e-06,0.00682812,0.002375,0.812031
-9.85060e-06,0.00629687,0.00217188,0.806562
-9.85040e-06,0.006125,0.00225,0.805937
-9.85020e-06,0.006375,0.00210937,0.805625
-9.85000e-06,0.00634375,0.0023125,0.808594
-9.84980e-06,0.00645312,0.00209375,0.805625
-9.84960e-06,0.00642187,0.00234375,0.804688
-9.84940e-06,0.00654687,0.00235937,0.805781
-9.84920e-06,0.00607812,0.00217188,0.807656
-9.84900e-06,0.0060625,0.00198438,0.806094
-9.84880e-06,0.00598438,0.0020625,0.805469
-9.84860e-06,0.00592187,0.00210937,0.806562
-9.84840e-06,0.00609375,0.00207813,0.803438
-9.84820e-06,0.0061875,0.00196875,0.806875
-9.84800e-06,0.0060625,0.0018125,0.802031
-9.84780e-06,0.00632812,0.0018125,0.806719
-9.84760e-06,0.00607812,0.00198438,0.805156
-9.84740e-06,0.00592187,0.001875,0.804219
-9.84720e-06,0.00615625,0.001875,0.804688
-9.84700e-06,0.00576562,0.00140625,0.802344
-9.84680e-06,0.00609375,0.00103125,0.803594
-9.84660e-06,0.00571875,0.00139063,0.803281
-9.84640e-06,0.00579687,0.0014375,0.803125
-9.84620e-06,0.00617187,0.00173438,0.804531
-9.84600e-06,0.006,0.00153125,0.801875
-9.84580e-06,0.00592187,0.00109375,0.806719
-9.84560e-06,0.00609375,0.00114063,0.807969
-9.84540e-06,0.00585938,0.00142188,0.802344
-9.84520e-06,0.00603125,0.0010625,0.802656
-9.84500e-06,0.00589062,0.00101563,0.804531
-9.84480e-06,0.00553125,0.000875,0.802187
-9.84460e-06,0.00560937,0.000890625,0.802187
-9.84440e-06,0.00598438,0.001,0.806406
-9.84420e-06,0.005625,0.000453125,0.804844
-9.84400e-06,0.00601562,0.000546875,0.802656
-9.84380e-06,0.00590625,0.00025,0.805
-9.84360e-06,0.00595313,0.000484375,0.804844
-9.84340e-06,0.00582813,0.00059375,0.805625
-9.84320e-06,0.00592187,0.00059375,0.805
-9.84300e-06,0.0059375,0.00046875,0.805312
-9.84280e-06,0.00598438,0.0001875,0.806562
-9.84260e-06,0.005875,0.00015625,0.806562
-9.84240e-06,0.00578125,3.125e-05,0.804688
-9.84220e-06,0.00523437,9.375e-05,0.808281
-9.84200e-06,0.00589062,0.000140625,0.804688
-9.84180e-06,0.00553125,-0.00025,0.806719
-9.84160e-06,0.005875,-0.000109375,0.804219
-9.84140e-06,0.00571875,-0.000125,0.810312
-9.84120e-06,0.00571875,-0.000421875,0.805937
-9.84100e-06,0.005625,-0.00040625,0.808437
-9.84080e-06,0.00578125,0.000296875,0.80875
-9.84060e-06,0.00553125,-3.125e-05,0.808437
-9.84040e-06,0.00592187,-0.000484375,0.805625
-9.84020e-06,0.00578125,-0.00046875,0.809531
-9.84000e-06,0.00564062,-0.00046875,0.807344
-9.83980e-06,0.0059375,-0.000703125,0.807344
-9.83960e-06,0.00570313,-0.000859375,0.808906
-9.83940e-06,0.00576562,-0.00078125,0.809375
-9.83920e-06,0.006,-0.00028125,0.815469
-9.83900e-06,0.00607812,-0.00101562,0.80625
-9.83880e-06,0.00542187,-0.000921875,0.810156
-9.83860e-06,0.00567187,-0.000671875,0.812187
-9.83840e-06,0.00576562,-0.00110937,0.8075
-9.83820e-06,0.0055625,-0.00109375,0.810625
-9.83800e-06,0.005875,-0.000484375,0.816875
-9.83780e-06,0.00539062,-0.00115625,0.809687
-9.83760e-06,0.00571875,-0.00114063,0.812656
-9.83740e-06,0.0058125,-0.00120312,0.81
-9.83720e-06,0.00601562,-0.000828125,0.813281
-9.83700e-06,0.0059375,-0.0009375,0.816562
-9.83680e-06,0.00546875,-0.00121875,0.816875
-9.83660e-06,0.0056875,-0.00126562,0.814375
-9.83640e-06,0.00559375,-0.0009375,0.81625
-9.83620e-06,0.00579687,-0.00109375,0.817812
-9.83600e-06,0.00573437,-0.00134375,0.814219
-9.83580e-06,0.00559375,-0.000890625,0.815781
-9.83560e-06,0.00557813,-0.00164063,0.820156
-9.83540e-06,0.00545313,-0.0013125,0.817031
-9.83520e-06,0.0055625,-0.00182812,0.818437
-9.83500e-06,0.00578125,-0.00164063,0.818594
-9.83480e-06,0.00567187,-0.0018125,0.815469
-9.83460e-06,0.00560937,-0.00165625,0.817656
-9.83440e-06,0.00573437,-0.0018125,0.824062
-9.83420e-06,0.0056875,-0.00160937,0.822656
-9.83400e-06,0.00534375,-0.00165625,0.819375
-9.83380e-06,0.00567187,-0.0019375,0.820937
-9.83360e-06,0.00548437,-0.00203125,0.820469
-9.83340e-06,0.00579687,-0.00221875,0.820625
-9.83320e-06,0.00579687,-0.00217187,0.824062
-9.83300e-06,0.00567187,-0.00235937,0.824688
-9.83280e-06,0.00573437,-0.00253125,0.825
-9.83260e-06,0.00575,-0.00229688,0.826406
-9.83240e-06,0.00546875,-0.00273437,0.827656
-9.83220e-06,0.00535937,-0.002625,0.825937
-9.83200e-06,0.00546875,-0.00275,0.82125
-9.83180e-06,0.0055,-0.00292187,0.825
-9.83160e-06,0.00596875,-0.00257812,0.828594
-9.83140e-06,0.00571875,-0.00320313,0.822656
-9.83120e-06,0.00595313,-0.00298437,0.822656
-9.83100e-06,0.0060625,-0.00290625,0.825469
-9.83080e-06,0.00595313,-0.0030625,0.827969
-9.83060e-06,0.0058125,-0.0029375,0.830313
-9.83040e-06,0.00528125,-0.00317187,0.826562
-9.83020e-06,0.00598438,-0.003625,0.824844
-9.83000e-06,0.0058125,-0.00332812,0.825312
-9.82980e-06,0.00592187,-0.00304688,0.82875
-9.82960e-06,0.005625,-0.00329688,0.825
-9.82940e-06,0.005375,-0.00346875,0.825
-9.82920e-06,0.00585938,-0.00317187,0.828281
-9.82900e-06,0.005375,-0.003625,0.825
-9.82880e-06,0.0056875,-0.00364062,0.828437
-9.82860e-06,0.00571875,-0.00339062,0.825625
-9.82840e-06,0.00559375,-0.00379688,0.825
-9.82820e-06,0.00560937,-0.00367187,0.825469
-9.82800e-06,0.00573437,-0.00317187,0.831875
-9.82780e-06,0.0053125,-0.00348437,0.8275
-9.82760e-06,0.0054375,-0.00384375,0.822812
-9.82740e-06,0.00564062,-0.00376562,0.824531
-9.82720e-06,0.00582813,-0.003625,0.828437
-9.82700e-06,0.00589062,-0.0034375,0.828281
-9.82680e-06,0.00579687,-0.00326562,0.828594
-9.82660e-06,0.005625,-0.00360937,0.831406
-9.82640e-06,0.00554687,-0.00357812,0.826562
-9.82620e-06,0.00571875,-0.00332812,0.827969
-9.82600e-06,0.0051875,-0.00360937,0.827187
-9.82580e-06,0.00560937,-0.00354688,0.825937
-9.82560e-06,0.00575,-0.00385937,0.82375
-9.82540e-06,0.00557813,-0.00404688,0.829219
-9.82520e-06,0.00578125,-0.00351562,0.830625
-9.82500e-06,0.00534375,-0.00417187,0.822969
-9.82480e-06,0.00564062,-0.00392187,0.825937
-9.82460e-06,0.006,-0.00425,0.826406
-9.82440e-06,0.0059375,-0.00353125,0.826875
-9.82420e-06,0.00579687,-0.0034375,0.830781
-9.82400e-06,0.00528125,-0.003375,0.8275
-9.82380e-06,0.00595313,-0.00370313,0.825937
-9.82360e-06,0.00570313,-0.00389062,0.82375
-9.82340e-06,0.00601562,-0.0036875,0.827187
-9.82320e-06,0.00584375,-0.003625,0.825
-9.82300e-06,0.00575,-0.0036875,0.823594
-9.82280e-06,0.00578125,-0.00378125,0.824844
-9.82260e-06,0.00546875,-0.00396875,0.821562
-9.82240e-06,0.00554687,-0.004,0.823594
-9.82220e-06,0.00570313,-0.0040625,0.824375
-9.82200e-06,0.0058125,-0.00390625,0.823906
-9.82180e-06,0.00575,-0.00420313,0.822656
-9.82160e-06,0.00585938,-0.00317187,0.829687
-9.82140e-06,0.005375,-0.00364062,0.826094
-9.82120e-06,0.00535937,-0.00398437,0.820156
-9.82100e-06,0.00557813,-0.00392187,0.819375
-9.82080e-06,0.00585938,-0.00420313,0.820156
-9.82060e-06,0.00576562,-0.00382812,0.8225
-9.82040e-06,0.00560937,-0.00409375,0.823125
-9.82020e-06,0.00564062,-0.00409375,0.820937
-9.82000e-06,0.00553125,-0.00373437,0.824062
-9.81980e-06,0.00554687,-0.00365625,0.823125
-9.81960e-06,0.00523437,-0.00398437,0.822031
-9.81940e-06,0.0055625,-0.00409375,0.822031
-9.81920e-06,0.0056875,-0.0043125,0.816562
-9.81900e-06,0.0055,-0.00428125,0.8175
-9.81880e-06,0.00584375,-0.00342187,0.823125
-9.81860e-06,0.00554687,-0.004625,0.813281
-9.81840e-06,0.00565625,-0.00425,0.816719
-9.81820e-06,0.00565625,-0.00440625,0.815
-9.81800e-06,0.00585938,-0.00442187,0.815625
-9.81780e-06,0.00576562,-0.00401562,0.818437
-9.81760e-06,0.00526562,-0.004,0.818125
-9.81740e-06,0.00592187,-0.00407812,0.818594
-9.81720e-06,0.0058125,-0.00415625,0.817031
-9.81700e-06,0.0059375,-0.0038125,0.819219
-9.81680e-06,0.00557813,-0.0038125,0.814375
-9.81660e-06,0.0055,-0.004125,0.816406
-9.81640e-06,0.005625,-0.00398437,0.818125
-9.81620e-06,0.0053125,-0.004,0.816094
-9.81600e-06,0.0055625,-0.00375,0.819687
-9.81580e-06,0.00564062,-0.00382812,0.811875
-9.81560e-06,0.00545313,-0.00425,0.812187
-9.81540e-06,0.0055625,-0.0038125,0.813437
-9.81520e-06,0.00571875,-0.00296875,0.817187
-9.81500e-06,0.00514062,-0.0034375,0.811094
-9.81480e-06,0.00515625,-0.00359375,0.81375
-9.81460e-06,0.00578125,-0.00370313,0.811719
-9.81440e-06,0.00573437,-0.00310937,0.814844
-9.81420e-06,0.00579687,-0.00292187,0.812344
-9.81400e-06,0.00545313,-0.002875,0.806719
-9.81380e-06,0.005625,-0.00315625,0.810156
-9.81360e-06,0.0055,-0.00317187,0.814219
-9.81340e-06,0.00576562,-0.00292187,0.805
-9.81320e-06,0.00526562,-0.00292187,0.808594
-9.81300e-06,0.00526562,-0.00323437,0.811094
-9.81280e-06,0.0055625,-0.0031875,0.809063
-9.81260e-06,0.00517187,-0.00285937,0.808594
-9.81240e-06,0.00560937,-0.00260937,0.814844
-9.81220e-06,0.00489062,-0.00340625,0.807812
-9.81200e-06,0.00525,-0.00264062,0.812344
-9.81180e-06,0.00567187,-0.00273437,0.809687
-9.81160e-06,0.00542187,-0.00289062,0.811719
-9.81140e-06,0.00546875,-0.00253125,0.809063
-9.81120e-06,0.0050625,-0.002875,0.808906
-9.81100e-06,0.00542187,-0.00267187,0.810937
-9.81080e-06,0.0055,-0.0025,0.809063
-9.81060e-06,0.0056875,-0.00245313,0.812031
-9.81040e-06,0.005625,-0.00271875,0.809844
-9.81020e-06,0.00501562,-0.00270313,0.8125
-9.81000e-06,0.00526562,-0.002375,0.812344
-9.80980e-06,0.00457813,-0.00285937,0.809063
-9.80960e-06,0.00564062,-0.00254688,0.806094
-9.80940e-06,0.00510937,-0.00284375,0.808281
-9.80920e-06,0.00548437,-0.0024375,0.805312
-9.80900e-06,0.00520313,-0.00235937,0.810937
-9.80880e-06,0.005625,-0.0023125,0.811406
-9.80860e-06,0.00514062,-0.003,0.8075
-9.80840e-06,0.00529687,-0.00245313,0.808437
-9.80820e-06,0.00510937,-0.0023125,0.808906
-9.80800e-06,0.00501562,-0.002375,0.812656
-9.80780e-06,0.00517187,-0.0023125,0.810156
-9.80760e-06,0.00523437,-0.00209375,0.806562
-9.80740e-06,0.00528125,-0.00253125,0.81
-9.80720e-06,0.00517187,-0.00239062,0.812656
-9.80700e-06,0.00554687,-0.00207812,0.805469
-9.80680e-06,0.00509375,-0.00210937,0.808906
-9.80660e-06,0.00478125,-0.00228125,0.812812
-9.80640e-06,0.0048125,-0.0023125,0.809375
-9.80620e-06,0.00507813,-0.00228125,0.807187
-9.80600e-06,0.00539062,-0.002,0.815781
-9.80580e-06,0.00446875,-0.0020625,0.806094
-9.80560e-06,0.005125,-0.00204688,0.811719
-9.80540e-06,0.0053125,-0.00215625,0.809063
-9.80520e-06,0.00528125,-0.00196875,0.813125
-9.80500e-06,0.00560937,-0.00184375,0.810937
-9.80480e-06,0.00517187,-0.00196875,0.809219
-9.80460e-06,0.00529687,-0.00170312,0.811875
-9.80440e-06,0.00515625,-0.00209375,0.811562
-9.80420e-06,0.00535937,-0.0019375,0.812187
-9.80400e-06,0.00503125,-0.00198437,0.809375
-9.80380e-06,0.00471875,-0.00170312,0.813594
-9.80360e-06,0.00473437,-0.001875,0.81625
-9.80340e-06,0.00446875,-0.00165625,0.81125
-9.80320e-06,0.005375,-0.00203125,0.809687
-9.80300e-06,0.004875,-0.001625,0.812187
-9.80280e-06,0.00492187,-0.00185937,0.812031
-9.80260e-06,0.00501562,-0.001625,0.812656
-9.80240e-06,0.0055,-0.00160937,0.820156
-9.80220e-06,0.004875,-0.0015625,0.8125
-9.80200e-06,0.00471875,-0.00192187,0.815156
-9.80180e-06,0.00475,-0.00178125,0.812969
-9.80160e-06,0.00496875,-0.00170312,0.813906
-9.80140e-06,0.00525,-0.00135937,0.812031
-9.80120e-06,0.00503125,-0.00176562,0.808594
-9.80100e-06,0.00520313,-0.00145312,0.813594
-9.80080e-06,0.00498437,-0.00121875,0.817031
-9.80060e-06,0.00507813,-0.00164063,0.81375
-9.80040e-06,0.00485937,-0.00129688,0.815
-9.80020e-06,0.00478125,-0.00135937,0.818906
-9.80000e-06,0.00465625,-0.0015625,0.815625
-9.79980e-06,0.00525,-0.00146875,0.814219
-9.79960e-06,0.00525,-0.00101562,0.824844
-9.79940e-06,0.004375,-0.00157812,0.81
-9.79920e-06,0.00517187,-0.0015625,0.815
-9.79900e-06,0.0046875,-0.00140625,0.817187
-9.79880e-06,0.00476562,-0.00132812,0.818594
-9.79860e-06,0.00523437,-0.00142187,0.822187
-9.79840e-06,0.00482813,-0.00151562,0.817656
-9.79820e-06,0.00479687,-0.00109375,0.819063
-9.79800e-06,0.00464062,-0.00125,0.816875
-9.79780e-06,0.00517187,-0.00101562,0.821875
-9.79760e-06,0.00471875,-0.00140625,0.818906
-9.79740e-06,0.00457813,-0.00078125,0.820469
-9.79720e-06,0.00459375,-0.001125,0.821094
-9.79700e-06,0.0044375,-0.00115625,0.81875
-9.79680e-06,0.00525,-0.00121875,0.82125
-9.79660e-06,0.00475,-0.0010625,0.816875
-9.79640e-06,0.00482813,-0.00145312,0.816094
-9.79620e-06,0.005125,-0.00109375,0.8175
-9.79600e-06,0.00565625,-0.000734375,0.826406
-9.79580e-06,0.00476562,-0.00109375,0.82125
-9.79560e-06,0.00467187,-0.000578125,0.819844
-9.79540e-06,0.00478125,-0.000765625,0.820156
-9.79520e-06,0.00492187,-0.000875,0.8225
-9.79500e-06,0.00514062,-0.00103125,0.822656
-9.79480e-06,0.0048125,-0.00125,0.818281
-9.79460e-06,0.00478125,-0.0009375,0.823125
-9.79440e-06,0.00465625,-0.0005,0.822969
-9.79420e-06,0.00521875,-0.00142187,0.822656
-9.79400e-06,0.00510937,-0.00110937,0.82125
-9.79380e-06,0.00476562,-0.00053125,0.823437
-9.79360e-06,0.00476562,-0.00125,0.817812
-9.79340e-06,0.00501562,-0.000984375,0.819219
-9.79320e-06,0.00504687,-0.0003125,0.827656
-9.79300e-06,0.00434375,-0.00142187,0.815781
-9.79280e-06,0.00501562,-0.000640625,0.817969
-9.79260e-06,0.00445313,-0.00096875,0.817812
-9.79240e-06,0.00475,-0.0006875,0.820781
-9.79220e-06,0.00532813,-0.0003125,0.824688
-9.79200e-06,0.00482813,-0.00071875,0.820625
-9.79180e-06,0.00479687,-0.000609375,0.822344
-9.79160e-06,0.00470313,-0.0010625,0.820469
-9.79140e-06,0.0054375,-0.00053125,0.823281
-9.79120e-06,0.00476562,-0.001,0.821719
-9.79100e-06,0.00492187,-0.00053125,0.823594
-9.79080e-06,0.00489062,-0.000328125,0.822812
-9.79060e-06,0.00432813,-0.000578125,0.820469
-9.79040e-06,0.005125,-0.00065625,0.825937
-9.79020e-06,0.00475,-0.00084375,0.821094
-9.79000e-06,0.00445313,-0.00110937,0.818125
-9.78980e-06,0.00442187,-0.000625,0.817812
-9.78960e-06,0.00526562,-0.000109375,0.827031
-9.78940e-06,0.00478125,-0.00084375,0.821875
-9.78920e-06,0.00457813,-0.000671875,0.821875
-9.78900e-06,0.00460937,-0.000625,0.82125
-9.78880e-06,0.00465625,-0.0005625,0.823281
-9.78860e-06,0.00504687,-0.000875,0.823906
-9.78840e-06,0.00492187,-0.000984375,0.823125
-9.78820e-06,0.0048125,-0.000609375,0.824375
-9.78800e-06,0.00467187,-0.000359375,0.825312
-9.78780e-06,0.00534375,-0.0008125,0.827031
-9.78760e-06,0.0049375,-0.00110937,0.824688
-9.78740e-06,0.00457813,-0.000515625,0.822344
-9.78720e-06,0.0048125,-0.000734375,0.819375
-9.78700e-06,0.005125,-0.000484375,0.827187
-9.78680e-06,0.0051875,0.00015625,0.829375
-9.78660e-06,0.00426562,-0.0010625,0.817344
-9.78640e-06,0.00484375,-0.00046875,0.819375
-9.78620e-06,0.00453125,-0.000828125,0.82125
-9.78600e-06,0.00490625,-0.000515625,0.824688
-9.78580e-06,0.00515625,-0.000265625,0.8275
-9.78560e-06,0.00454687,-0.000390625,0.823281
-9.78540e-06,0.004875,-0.000421875,0.819844
-9.78520e-06,0.0045625,-0.0005,0.819687
-9.78500e-06,0.00529687,4.6875e-05,0.824688
-9.78480e-06,0.00470313,-0.00075,0.821094
-9.78460e-06,0.00471875,-0.000328125,0.822031
-9.78440e-06,0.00479687,-0.00021875,0.821562
-9.78420e-06,0.00454687,-0.000109375,0.818437
-9.78400e-06,0.00504687,-0.00015625,0.822187
-9.78380e-06,0.00460937,-0.00075,0.818281
-9.78360e-06,0.00401562,-0.000734375,0.814688
-9.78340e-06,0.00457813,-0.000640625,0.817656
-9.78320e-06,0.00548437,1.5625e-05,0.825312
-9.78300e-06,0.00484375,-0.00040625,0.817969
-9.78280e-06,0.00479687,-0.0005,0.816406
-9.78260e-06,0.00451562,-0.000578125,0.81875
-9.78240e-06,0.00482813,-0.000515625,0.816719
-9.78220e-06,0.00470313,-0.00025,0.820625
-9.78200e-06,0.00459375,-0.000796875,0.812344
-9.78180e-06,0.00496875,-0.000390625,0.815781
-9.78160e-06,0.00482813,-3.125e-05,0.82
-9.78140e-06,0.00492187,-0.0001875,0.817344
-9.78120e-06,0.00492187,-0.00040625,0.816875
-9.78100e-06,0.00451562,-0.0004375,0.816406
-9.78080e-06,0.0043125,-0.0006875,0.815937
-9.78060e-06,0.00482813,-0.00059375,0.817969
-9.78040e-06,0.0050625,0.0001875,0.823594
-9.78020e-06,0.00425,-0.000890625,0.811406
-9.78000e-06,0.00459375,-0.0005625,0.815156
-9.77980e-06,0.00457813,-0.0005625,0.815937
-9.77960e-06,0.004625,-0.000484375,0.815312
-9.77940e-06,0.00484375,-0.000265625,0.819063
-9.77920e-06,0.00470313,-0.00034375,0.815312
-9.77900e-06,0.0048125,-0.00025,0.818281
-9.77880e-06,0.004625,-0.000421875,0.813437
-9.77860e-06,0.005,-1.5625e-05,0.821406
-9.77840e-06,0.00473437,-0.000703125,0.81125
-9.77820e-06,0.00460937,-0.000375,0.815937
-9.77800e-06,0.00459375,-0.000203125,0.817969
-9.77780e-06,0.00415625,-0.000140625,0.813906
-9.77760e-06,0.0050625,3.125e-05,0.815937
-9.77740e-06,0.00460937,-0.000546875,0.812969
-9.77720e-06,0.00404687,-0.0009375,0.809687
-9.77700e-06,0.0045625,-0.000734375,0.812031
-9.77680e-06,0.005375,0.00034375,0.81875
-9.77660e-06,0.00475,-0.00028125,0.810781
-9.77640e-06,0.00440625,-0.000234375,0.813281
-9.77620e-06,0.00440625,-3.125e-05,0.813594
-9.77600e-06,0.00453125,-0.000296875,0.813906
-9.77580e-06,0.00507813,1.5625e-05,0.812031
-9.77560e-06,0.00479687,-0.000546875,0.809687
-9.77540e-06,0.0049375,-0.0004375,0.812812
-9.77520e-06,0.0045625,-0.000375,0.815469
-9.77500e-06,0.00479687,-0.00053125,0.81
-9.77480e-06,0.005,-0.00028125,0.811406
-9.77460e-06,0.00464062,-0.000140625,0.813125
-9.77440e-06,0.00476562,-0.00028125,0.81375
-9.77420e-06,0.00485937,-0.000453125,0.812344
-9.77400e-06,0.00510937,0.000359375,0.818125
-9.77380e-06,0.00425,-0.00084375,0.807656
-9.77360e-06,0.00478125,-0.00034375,0.813437
-9.77340e-06,0.00453125,-6.25e-05,0.808906
-9.77320e-06,0.00454687,-0.000359375,0.814062
-9.77300e-06,0.0050625,0.0003125,0.814531
-9.77280e-06,0.00453125,-0.00015625,0.810312
-9.77260e-06,0.00454687,1.5625e-05,0.81375
-9.77240e-06,0.00448437,-0.00025,0.811562
