reproduction/Observation of temporal reflection/data/Time_Interface_Source_Data/2d_raw/tek0000.csv

Model,DPO4104
Firmware Version,2.48

Point Format,Y,
Horizontal Units,S,
Horizontal Scale,2e-06,
Sample Interval,2e-10,
Record Length,100000,
Gating,0.0% to 100.0%,0.0% to 100.0%
Probe Attenuation,1,1
Vertical Units,V,V
Vertical Offset,0,0
Vertical Scale,0.1,0.1
Label,,
TIME,CH1,CH2
-9.92500e-06,0.00942188,0.0064375
-9.92480e-06,0.00909375,0.00610938
-9.92460e-06,0.0090625,0.00639063
-9.92440e-06,0.00940625,0.0068125
-9.92420e-06,0.00992188,0.00676563
-9.92400e-06,0.0103594,0.00692188
-9.92380e-06,0.0107656,0.00753125
-9.92360e-06,0.0108437,0.00717188
-9.92340e-06,0.011375,0.00785938
-9.92320e-06,0.0106875,0.00803125
-9.92300e-06,0.0102813,0.00771875
-9.92280e-06,0.0100781,0.00765625
-9.92260e-06,0.011125,0.00789063
-9.92240e-06,0.0107813,0.00734375
-9.92220e-06,0.0102656,0.00785938
-9.92200e-06,0.0101875,0.00828125
-9.92180e-06,0.010625,0.0089375
-9.92160e-06,0.01025,0.0094375
-9.92140e-06,0.0105156,0.00954688
-9.92120e-06,0.0104219,0.00967188
-9.92100e-06,0.0105156,0.00954688
-9.92080e-06,0.0108594,0.00829688
-9.92060e-06,0.011,0.00846875
-9.92040e-06,0.0105313,0.0086875
-9.92020e-06,0.00973438,0.00829688
-9.92000e-06,0.00910938,0.00804688
-9.91980e-06,0.00889062,0.00823438
-9.91960e-06,0.0083125,0.00776563
-9.91940e-06,0.0080625,0.00776563
-9.91920e-06,0.00846875,0.00734375
-9.91900e-06,0.00867188,0.00665625
-9.91880e-06,0.00845313,0.00557813
-9.91860e-06,0.00857813,0.00457813
-9.91840e-06,0.00878125,0.0036875
-9.91820e-06,0.00923438,0.00321875
-9.91800e-06,0.0099375,0.00257813
-9.91780e-06,0.0103125,0.00176563
-9.91760e-06,0.010625,0.00164063
-9.91740e-06,0.0114219,0.00184375
-9.91720e-06,0.0109531,0.00203125
-9.91700e-06,0.0112031,0.00240625
-9.91680e-06,0.0104063,0.00301563
-9.91660e-06,0.00971875,0.00373438
-9.91640e-06,0.00970313,0.00425
-9.91620e-06,0.00978125,0.00571875
-9.91600e-06,0.00889062,0.00617188
-9.91580e-06,0.00853125,0.00659375
-9.91560e-06,0.00853125,0.00789063
-9.91540e-06,0.00815625,0.00889063
-9.91520e-06,0.00864062,0.01025
-9.91500e-06,0.00890625,0.0114219
-9.91480e-06,0.0094375,0.0114375
-9.91460e-06,0.00985938,0.0114688
-9.91440e-06,0.0101563,0.0114219
-9.91420e-06,0.0107344,0.0102813
-9.91400e-06,0.0112031,0.0089375
-9.91380e-06,0.0117344,0.00754688
-9.91360e-06,0.0118281,0.00626563
-9.91340e-06,0.0128281,0.005625
-9.91320e-06,0.0125781,0.00457813
-9.91300e-06,0.0125313,0.00439063
-9.91280e-06,0.0126563,0.00476563
-9.91260e-06,0.0121094,0.0058125
-9.91240e-06,0.0117969,0.00689063
-9.91220e-06,0.0112187,0.00760938
-9.91200e-06,0.0113281,0.00851563
-9.91180e-06,0.0114687,0.00928125
-9.91160e-06,0.011625,0.0100938
-9.91140e-06,0.0117969,0.0101406
-9.91120e-06,0.0126875,0.0100313
-9.91100e-06,0.012625,0.00973438
-9.91080e-06,0.0127656,0.008875
-9.91060e-06,0.0122969,0.00814063
-9.91040e-06,0.012875,0.0078125
-9.91020e-06,0.0121875,0.00729688
-9.91000e-06,0.0124375,0.00764063
-9.90980e-06,0.0120781,0.00789063
-9.90960e-06,0.0114531,0.00820313
-9.90940e-06,0.0110625,0.00828125
-9.90920e-06,0.0114063,0.00809375
-9.90900e-06,0.0111094,0.00814063
-9.90880e-06,0.0118438,0.00840625
-9.90860e-06,0.0120781,0.008125
-9.90840e-06,0.01275,0.007875
-9.90820e-06,0.0137344,0.007625
-9.90800e-06,0.0135625,0.00770313
-9.90780e-06,0.0130938,0.00720313
-9.90760e-06,0.0129219,0.00715625
-9.90740e-06,0.0115625,0.00710938
-9.90720e-06,0.01075,0.00726563
-9.90700e-06,0.0100313,0.00746875
-9.90680e-06,0.0084375,0.00792188
-9.90660e-06,0.00789063,0.00853125
-9.90640e-06,0.00726563,0.00992188
-9.90620e-06,0.00715625,0.0113438
-9.90600e-06,0.00740625,0.0121094
-9.90580e-06,0.00714063,0.0134688
-9.90560e-06,0.00810938,0.0134688
-9.90540e-06,0.00846875,0.0139375
-9.90520e-06,0.009,0.0140313
-9.90500e-06,0.00975,0.0134063
-9.90480e-06,0.0104375,0.0135313
-9.90460e-06,0.0113125,0.0129531
-9.90440e-06,0.0113906,0.0121094
-9.90420e-06,0.0119531,0.0115625
-9.90400e-06,0.0120938,0.0109219
-9.90380e-06,0.0121875,0.0107188
-9.90360e-06,0.0125469,0.0105
-9.90340e-06,0.0127188,0.0113125
-9.90320e-06,0.012875,0.010875
-9.90300e-06,0.0124531,0.0111875
-9.90280e-06,0.01225,0.0113906
-9.90260e-06,0.0119844,0.0112031
-9.90240e-06,0.0116094,0.0110625
-9.90220e-06,0.0111875,0.0108906
-9.90200e-06,0.0104531,0.0105469
-9.90180e-06,0.00975,0.01025
-9.90160e-06,0.00865625,0.011
-9.90140e-06,0.00839062,0.0115156
-9.90120e-06,0.0083125,0.0127344
-9.90100e-06,0.00785938,0.0136094
-9.90080e-06,0.0075625,0.0145469
-9.90060e-06,0.00789063,0.01575
-9.90040e-06,0.00709375,0.0155156
-9.90020e-06,0.00748438,0.0159375
-9.90000e-06,0.00779688,0.0158594
-9.89980e-06,0.00832813,0.0155
-9.89960e-06,0.0086875,0.0152656
-9.89940e-06,0.00890625,0.014625
-9.89920e-06,0.00934375,0.0140625
-9.89900e-06,0.0100469,0.0139375
-9.89880e-06,0.0102656,0.0136875
-9.89860e-06,0.0105,0.0136875
-9.89840e-06,0.0106406,0.01425
-9.89820e-06,0.0115,0.0145781
-9.89800e-06,0.0108125,0.0147031
-9.89780e-06,0.0112813,0.0152344
-9.89760e-06,0.0108594,0.0148281
-9.89740e-06,0.0106094,0.0142969
-9.89720e-06,0.00998438,0.0139063
-9.89700e-06,0.0103594,0.01375
-9.89680e-06,0.00953125,0.0127188
-9.89660e-06,0.00926562,0.0124375
-9.89640e-06,0.00928125,0.0123281
-9.89620e-06,0.00923438,0.0122656
-9.89600e-06,0.00914062,0.012625
-9.89580e-06,0.00928125,0.012875
-9.89560e-06,0.009625,0.0133125
-9.89540e-06,0.0103906,0.0140156
-9.89520e-06,0.0106563,0.0140781
-9.89500e-06,0.0106563,0.0141406
-9.89480e-06,0.0107031,0.0142969
-9.89460e-06,0.0114531,0.0138281
-9.89440e-06,0.0114687,0.0140469
-9.89420e-06,0.0120313,0.0144375
-9.89400e-06,0.0117031,0.0132188
-9.89380e-06,0.012,0.01325
-9.89360e-06,0.012125,0.0128438
-9.89340e-06,0.0125938,0.012875
-9.89320e-06,0.0126875,0.0122188
-9.89300e-06,0.0124375,0.0122656
-9.89280e-06,0.012625,0.0123438
-9.89260e-06,0.0125781,0.01225
-9.89240e-06,0.0125938,0.0122188
-9.89220e-06,0.0124688,0.0120625
-9.89200e-06,0.0126875,0.0125156
-9.89180e-06,0.0123438,0.0121406
-9.89160e-06,0.0125469,0.0122813
-9.89140e-06,0.0125625,0.0122969
-9.89120e-06,0.01325,0.0127344
-9.89100e-06,0.0136094,0.0131406
-9.89080e-06,0.0145156,0.0135313
-9.89060e-06,0.0157656,0.0146094
-9.89040e-06,0.017125,0.0144688
-9.89020e-06,0.0177969,0.0144375
-9.89000e-06,0.0185312,0.0150625
-9.88980e-06,0.0195156,0.0160938
-9.88960e-06,0.0205781,0.0169375
-9.88940e-06,0.0205,0.018375
-9.88920e-06,0.0212031,0.01925
-9.88900e-06,0.0216563,0.0207188
-9.88880e-06,0.0215938,0.0206719
-9.88860e-06,0.02125,0.020875
-9.88840e-06,0.0214844,0.0212969
-9.88820e-06,0.0209688,0.0202188
-9.88800e-06,0.0205625,0.0194063
-9.88780e-06,0.0206719,0.0190625
-9.88760e-06,0.0198438,0.017625
-9.88740e-06,0.0196094,0.0166563
-9.88720e-06,0.0193281,0.0155938
-9.88700e-06,0.0190938,0.0145469
-9.88680e-06,0.0190156,0.0142031
-9.88660e-06,0.0180469,0.0136094
-9.88640e-06,0.0174219,0.0126563
-9.88620e-06,0.0169063,0.011875
-9.88600e-06,0.0165938,0.0117031
-9.88580e-06,0.01575,0.011
-9.88560e-06,0.0156875,0.0105156
-9.88540e-06,0.0156875,0.010625
-9.88520e-06,0.0147656,0.0101719
-9.88500e-06,0.0153438,0.0105938
-9.88480e-06,0.01475,0.0105156
-9.88460e-06,0.0147969,0.0110156
-9.88440e-06,0.014875,0.0118438
-9.88420e-06,0.0155781,0.0123125
-9.88400e-06,0.0150469,0.0129219
-9.88380e-06,0.0147969,0.0135938
-9.88360e-06,0.0150625,0.0138906
-9.88340e-06,0.0151094,0.0135313
-9.88320e-06,0.0149375,0.0129063
-9.88300e-06,0.0148438,0.0119688
-9.88280e-06,0.0144375,0.0110625
-9.88260e-06,0.0143438,0.0103125
-9.88240e-06,0.0145,0.00914063
-9.88220e-06,0.0143281,0.0084375
-9.88200e-06,0.0142188,0.00804688
-9.88180e-06,0.01375,0.00770313
-9.88160e-06,0.0139844,0.00745313
-9.88140e-06,0.0145,0.00748438
-9.88120e-06,0.0130625,0.00635938
-9.88100e-06,0.0132969,0.00671875
-9.88080e-06,0.0130469,0.0060625
-9.88060e-06,0.013125,0.00645313
-9.88040e-06,0.0127031,0.00670313
-9.88020e-06,0.0124219,0.00678125
-9.88000e-06,0.012,0.00673438
-9.87980e-06,0.01175,0.00703125
-9.87960e-06,0.0119063,0.0075625
-9.87940e-06,0.0116563,0.007625
-9.87920e-06,0.0113906,0.00864063
-9.87900e-06,0.0115313,0.00925
-9.87880e-06,0.0117969,0.00921875
-9.87860e-06,0.0119219,0.00985938
-9.87840e-06,0.0118906,0.00998438
-9.87820e-06,0.0115469,0.0100156
-9.87800e-06,0.0115,0.00976563
-9.87780e-06,0.0115625,0.0105469
-9.87760e-06,0.0111875,0.00964063
-9.87740e-06,0.0110781,0.00907813
-9.87720e-06,0.0112969,0.00815625
-9.87700e-06,0.011125,0.0078125
-9.87680e-06,0.0115781,0.00717188
-9.87660e-06,0.0112813,0.00675
-9.87640e-06,0.0110469,0.00578125
-9.87620e-06,0.0114531,0.00557813
-9.87600e-06,0.0115781,0.0044375
-9.87580e-06,0.0111563,0.004375
-9.87560e-06,0.0107969,0.00378125
-9.87540e-06,0.0103281,0.00384375
-9.87520e-06,0.0106094,0.00403125
-9.87500e-06,0.0106719,0.00464063
-9.87480e-06,0.00932813,0.00446875
-9.87460e-06,0.00935938,0.0053125
-9.87440e-06,0.00948438,0.00553125
-9.87420e-06,0.00948438,0.00645313
-9.87400e-06,0.00978125,0.00695313
-9.87380e-06,0.00979688,0.00692188
-9.87360e-06,0.0093125,0.00646875
-9.87340e-06,0.00926562,0.006125
-9.87320e-06,0.0095,0.0063125
-9.87300e-06,0.00939062,0.00532813
-9.87280e-06,0.0093125,0.00529688
-9.87260e-06,0.0095,0.00429688
-9.87240e-06,0.0091875,0.00376563
-9.87220e-06,0.00929688,0.00329688
-9.87200e-06,0.0091875,0.0024375
-9.87180e-06,0.00940625,0.0016875
-9.87160e-06,0.00960938,0.00171875
-9.87140e-06,0.0104063,0.0019375
-9.87120e-06,0.0099375,0.001625
-9.87100e-06,0.00942188,0.00185938
-9.87080e-06,0.0093125,0.00196875
-9.87060e-06,0.0093125,0.00259375
-9.87040e-06,0.00895313,0.0029375
-9.87020e-06,0.00857813,0.00307813
-9.87000e-06,0.00875,0.00307813
-9.86980e-06,0.009125,0.00375
-9.86960e-06,0.0081875,0.00385938
-9.86940e-06,0.00826562,0.00378125
-9.86920e-06,0.008125,0.00371875
-9.86900e-06,0.00814062,0.00390625
-9.86880e-06,0.00804688,0.00367188
-9.86860e-06,0.00817188,0.0035
-9.86840e-06,0.00807813,0.00240625
-9.86820e-06,0.00795313,0.0021875
-9.86800e-06,0.00785938,0.00167188
-9.86780e-06,0.00826562,0.0015
-9.86760e-06,0.00815625,0.00132813
-9.86740e-06,0.00834375,0.00075
-9.86720e-06,0.00860938,0.000640625
-9.86700e-06,0.00821875,2.77556e-17
-9.86680e-06,0.00879688,-0.000265625
-9.86660e-06,0.008625,-0.000296875
-9.86640e-06,0.00890625,-0.000984375
-9.86620e-06,0.00817188,-0.000640625
-9.86600e-06,0.00817188,-0.00107812
-9.86580e-06,0.0078125,-0.0005625
-9.86560e-06,0.00726563,-0.000484375
-9.86540e-06,0.007375,-4.6875e-05
-9.86520e-06,0.0070625,3.125e-05
-9.86500e-06,0.007625,0.0003125
-9.86480e-06,0.0069375,0.000375
-9.86460e-06,0.00664063,0.000546875
-9.86440e-06,0.0069375,0.00071875
-9.86420e-06,0.00689063,0.00034375
-9.86400e-06,0.00728125,0.000890625
-9.86380e-06,0.00710938,0.00053125
-9.86360e-06,0.00709375,0.0010625
-9.86340e-06,0.00725,0.00114063
-9.86320e-06,0.00753125,0.000265625
-9.86300e-06,0.00721875,0.000390625
-9.86280e-06,0.00729688,0.0001875
-9.86260e-06,0.00767188,-4.6875e-05
-9.86240e-06,0.00776563,-0.00028125
-9.86220e-06,0.0079375,-0.00034375
-9.86200e-06,0.00745313,-0.00135937
-9.86180e-06,0.00767188,-0.000984375
-9.86160e-06,0.00775,-0.00134375
-9.86140e-06,0.00759375,-0.00123437
-9.86120e-06,0.0075,-0.00075
-9.86100e-06,0.00679688,-0.00117187
-9.86080e-06,0.00689063,-0.00128125
-9.86060e-06,0.00657813,-0.00109375
-9.86040e-06,0.00690625,-0.000390625
-9.86020e-06,0.0064375,-0.00025
-9.86000e-06,0.006375,-0.00028125
-9.85980e-06,0.00642188,-4.6875e-05
-9.85960e-06,0.00628125,0.0001875
-9.85940e-06,0.00673438,0.000234375
-9.85920e-06,0.00615625,0.00021875
-9.85900e-06,0.00598438,0.000203125
-9.85880e-06,0.00634375,2.77556e-17
-9.85860e-06,0.007,0.000109375
-9.85840e-06,0.00671875,-0.0005
-9.85820e-06,0.0064375,-0.00059375
-9.85800e-06,0.00654688,-0.000953125
-9.85780e-06,0.00689063,-0.00117187
-9.85760e-06,0.0073125,-0.00128125
-9.85740e-06,0.00695313,-0.001625
-9.85720e-06,0.00717188,-0.00170312
-9.85700e-06,0.00714063,-0.00154687
-9.85680e-06,0.00685938,-0.00145312
-9.85660e-06,0.00660938,-0.00164062
-9.85640e-06,0.00632813,-0.00148437
-9.85620e-06,0.00620313,-0.00167187
-9.85600e-06,0.00696875,-0.000875
-9.85580e-06,0.0069375,-0.000625
-9.85560e-06,0.00609375,-0.00126562
-9.85540e-06,0.0059375,-0.0005625
-9.85520e-06,0.00595313,-0.0003125
-9.85500e-06,0.00629688,-0.000234375
-9.85480e-06,0.00659375,-0.000265625
-9.85460e-06,0.006125,2.77556e-17
-9.85440e-06,0.00590625,1.5625e-05
-9.85420e-06,0.00575,-0.000171875
-9.85400e-06,0.00603125,-0.000296875
-9.85380e-06,0.00542188,-0.00034375
-9.85360e-06,0.00626563,-0.000984375
-9.85340e-06,0.00607813,-0.00129687
-9.85320e-06,0.00592188,-0.00178125
-9.85300e-06,0.00626563,-0.00171875
-9.85280e-06,0.00646875,-0.00228125
-9.85260e-06,0.00604688,-0.00257812
-9.85240e-06,0.00628125,-0.00265625
-9.85220e-06,0.00689063,-0.00217187
-9.85200e-06,0.00651563,-0.00217187
-9.85180e-06,0.00628125,-0.00220312
-9.85160e-06,0.00634375,-0.00217187
-9.85140e-06,0.00651563,-0.00153125
-9.85120e-06,0.00634375,-0.00121875
-9.85100e-06,0.00575,-0.0011875
-9.85080e-06,0.00590625,-0.000875
-9.85060e-06,0.00609375,-0.000796875
-9.85040e-06,0.0060625,-0.000578125
-9.85020e-06,0.00570313,-0.00103125
-9.85000e-06,0.00559375,-0.00145312
-9.84980e-06,0.00570313,-0.00153125
-9.84960e-06,0.00579688,-0.00101562
-9.84940e-06,0.00640625,-0.00103125
-9.84920e-06,0.00529688,-0.00232812
-9.84900e-06,0.00604688,-0.00189062
-9.84880e-06,0.005875,-0.00257812
-9.84860e-06,0.00623438,-0.00254687
-9.84840e-06,0.00665625,-0.00232812
-9.84820e-06,0.00615625,-0.00245312
-9.84800e-06,0.00634375,-0.00248437
-9.84780e-06,0.00614063,-0.0026875
-9.84760e-06,0.00651563,-0.00270312
-9.84740e-06,0.00603125,-0.0028125
-9.84720e-06,0.0063125,-0.00214062
-9.84700e-06,0.005875,-0.00203125
-9.84680e-06,0.00570313,-0.00207812
-9.84660e-06,0.00592188,-0.0016875
-9.84640e-06,0.00551563,-0.00170312
-9.84620e-06,0.00534375,-0.0020625
-9.84600e-06,0.00545313,-0.00195312
-9.84580e-06,0.00615625,-0.00084375
-9.84560e-06,0.0054375,-0.00145312
-9.84540e-06,0.00575,-0.00139062
-9.84520e-06,0.00559375,-0.00157812
-9.84500e-06,0.00576563,-0.00117187
-9.84480e-06,0.00596875,-0.000953125
-9.84460e-06,0.00525,-0.00114062
-9.84440e-06,0.00570313,-0.000828125
-9.84420e-06,0.00632813,-0.00120312
-9.84400e-06,0.00659375,-0.00129687
-9.84380e-06,0.00646875,-0.00121875
-9.84360e-06,0.006375,-0.00164062
-9.84340e-06,0.00596875,-0.0016875
-9.84320e-06,0.00642188,-0.00159375
-9.84300e-06,0.0065625,-0.00125
-9.84280e-06,0.00578125,-0.0024375
-9.84260e-06,0.00589063,-0.00221875
-9.84240e-06,0.00573437,-0.00209375
-9.84220e-06,0.00546875,-0.00198437
-9.84200e-06,0.00595313,-0.00139062
-9.84180e-06,0.00582813,-0.00171875
-9.84160e-06,0.00603125,-0.00140625
-9.84140e-06,0.005625,-0.00157812
-9.84120e-06,0.005875,-0.000890625
-9.84100e-06,0.0053125,-0.00128125
-9.84080e-06,0.00625,-0.00129687
-9.84060e-06,0.00584375,-0.00140625
-9.84040e-06,0.00582813,-0.001625
-9.84020e-06,0.00635938,-0.000953125
-9.84000e-06,0.00589063,-0.00146875
-9.83980e-06,0.0055625,-0.00220312
-9.83960e-06,0.00570313,-0.00226562
-9.83940e-06,0.00684375,-0.001375
-9.83920e-06,0.00645313,-0.00178125
-9.83900e-06,0.00615625,-0.00189062
-9.83880e-06,0.006125,-0.00198437
-9.83860e-06,0.005875,-0.002
-9.83840e-06,0.00639063,-0.00175
-9.83820e-06,0.00553125,-0.00196875
-9.83800e-06,0.00604688,-0.00145312
-9.83780e-06,0.00615625,-0.00167187
-9.83760e-06,0.00590625,-0.00159375
-9.83740e-06,0.00589063,-0.00125
-9.83720e-06,0.00582813,-0.00142187
-9.83700e-06,0.00595313,-0.00132812
-9.83680e-06,0.006,-0.0010625
-9.83660e-06,0.00632813,-0.000703125
-9.83640e-06,0.00535937,-0.00176562
-9.83620e-06,0.00590625,-0.0009375
-9.83600e-06,0.00559375,-0.00121875
-9.83580e-06,0.00571875,-0.00090625
-9.83560e-06,0.00598438,-0.00059375
-9.83540e-06,0.00596875,-0.00114062
-9.83520e-06,0.00625,-0.00123437
-9.83500e-06,0.00610938,-0.0018125
-9.83480e-06,0.0064375,-0.0016875
-9.83460e-06,0.00632813,-0.00245312
-9.83440e-06,0.0065,-0.00195312
-9.83420e-06,0.006375,-0.00229687
-9.83400e-06,0.00607813,-0.00267187
-9.83380e-06,0.00654688,-0.0024375
-9.83360e-06,0.00626563,-0.0029375
-9.83340e-06,0.00560937,-0.00296875
-9.83320e-06,0.00578125,-0.00276562
-9.83300e-06,0.00678125,-0.002
-9.83280e-06,0.0059375,-0.0025625
-9.83260e-06,0.006,-0.00229687
-9.83240e-06,0.00590625,-0.00253125
-9.83220e-06,0.00573437,-0.00221875
-9.83200e-06,0.00585938,-0.00179687
-9.83180e-06,0.00540625,-0.00253125
-9.83160e-06,0.00571875,-0.00225
-9.83140e-06,0.00601563,-0.00189062
-9.83120e-06,0.0059375,-0.0023125
-9.83100e-06,0.00590625,-0.00221875
-9.83080e-06,0.0059375,-0.0023125
-9.83060e-06,0.00575,-0.00251562
-9.83040e-06,0.00607813,-0.00289062
-9.83020e-06,0.00659375,-0.002375
-9.83000e-06,0.00557813,-0.003375
-9.82980e-06,0.00590625,-0.00339062
-9.82960e-06,0.00585938,-0.0035625
-9.82940e-06,0.00589063,-0.003875
-9.82920e-06,0.00654688,-0.00385937
-9.82900e-06,0.006,-0.004
-9.82880e-06,0.00642188,-0.004
-9.82860e-06,0.00617188,-0.00425
-9.82840e-06,0.00639063,-0.004125
-9.82820e-06,0.006125,-0.00423437
-9.82800e-06,0.00620313,-0.00428125
-9.82780e-06,0.0059375,-0.00410937
-9.82760e-06,0.00592188,-0.00417187
-9.82740e-06,0.00601563,-0.00398437
-9.82720e-06,0.00564063,-0.00442187
-9.82700e-06,0.0054375,-0.00440625
-9.82680e-06,0.00582813,-0.00439062
-9.82660e-06,0.0063125,-0.0041875
-9.82640e-06,0.005875,-0.00460937
-9.82620e-06,0.0060625,-0.00465625
-9.82600e-06,0.00598438,-0.00475
-9.82580e-06,0.005875,-0.00479687
-9.82560e-06,0.0063125,-0.0048125
-9.82540e-06,0.00582813,-0.00473437
-9.82520e-06,0.00620313,-0.00475
-9.82500e-06,0.00642188,-0.00485937
-9.82480e-06,0.00664063,-0.00496875
-9.82460e-06,0.00629688,-0.00501562
-9.82440e-06,0.00617188,-0.00532812
-9.82420e-06,0.00604688,-0.00489062
-9.82400e-06,0.0065,-0.0045
-9.82380e-06,0.00670313,-0.00414062
-9.82360e-06,0.00557813,-0.00439062
-9.82340e-06,0.00582813,-0.0040625
-9.82320e-06,0.00554688,-0.00379687
-9.82300e-06,0.0056875,-0.00351562
-9.82280e-06,0.0059375,-0.00342187
-9.82260e-06,0.00560937,-0.00339062
-9.82240e-06,0.005875,-0.00284375
-9.82220e-06,0.00548437,-0.00303125
-9.82200e-06,0.00626563,-0.00290625
-9.82180e-06,0.00529688,-0.00321875
-9.82160e-06,0.0058125,-0.002625
-9.82140e-06,0.00576563,-0.00278125
-9.82120e-06,0.00582813,-0.0031875
-9.82100e-06,0.00596875,-0.00304687
-9.82080e-06,0.00589063,-0.00323437
-9.82060e-06,0.0053125,-0.003375
-9.82040e-06,0.00548437,-0.00304687
-9.82020e-06,0.00653125,-0.00275
-9.82000e-06,0.0061875,-0.003125
-9.81980e-06,0.00615625,-0.00310937
-9.81960e-06,0.00584375,-0.00323437
-9.81940e-06,0.006,-0.00328125
-9.81920e-06,0.00625,-0.0030625
-9.81900e-06,0.00545313,-0.00360937
-9.81880e-06,0.00545313,-0.00310937
-9.81860e-06,0.0059375,-0.00251562
-9.81840e-06,0.00584375,-0.003375
-9.81820e-06,0.00585938,-0.00303125
-9.81800e-06,0.00564063,-0.00264062
-9.81780e-06,0.00540625,-0.00307812
-9.81760e-06,0.0056875,-0.0030625
-9.81740e-06,0.00615625,-0.00223437
-9.81720e-06,0.005,-0.00292187
-9.81700e-06,0.00551563,-0.00242187
-9.81680e-06,0.00525,-0.00289062
-9.81660e-06,0.00551563,-0.00229687
-9.81640e-06,0.00589063,-0.00185937
-9.81620e-06,0.00578125,-0.00254687
-9.81600e-06,0.00573437,-0.0025625
-9.81580e-06,0.005625,-0.00259375
-9.81560e-06,0.006125,-0.00192187
-9.81540e-06,0.005375,-0.00275
-9.81520e-06,0.00582813,-0.00239062
-9.81500e-06,0.00589063,-0.00234375
-9.81480e-06,0.00573437,-0.00271875
-9.81460e-06,0.00601563,-0.00217187
-9.81440e-06,0.00551563,-0.0026875
-9.81420e-06,0.00535937,-0.00270312
-9.81400e-06,0.00532813,-0.00270312
-9.81380e-06,0.00621875,-0.00196875
-9.81360e-06,0.0059375,-0.00201562
-9.81340e-06,0.0060625,-0.00203125
-9.81320e-06,0.00529688,-0.0025625
-9.81300e-06,0.00557813,-0.00240625
-9.81280e-06,0.00615625,-0.00178125
-9.81260e-06,0.00539063,-0.00220312
-9.81240e-06,0.005125,-0.00220312
-9.81220e-06,0.00551563,-0.00167187
-9.81200e-06,0.00554688,-0.00182812
-9.81180e-06,0.00517188,-0.00198437
-9.81160e-06,0.0055625,-0.00204687
-9.81140e-06,0.00559375,-0.00214062
-9.81120e-06,0.00559375,-0.00170312
-9.81100e-06,0.00626563,-0.00159375
-9.81080e-06,0.00515625,-0.0025625
-9.81060e-06,0.005375,-0.00209375
-9.81040e-06,0.00520313,-0.00242187
-9.81020e-06,0.00545313,-0.00246875
-9.81000e-06,0.00575,-0.002
-9.80980e-06,0.00560937,-0.00221875
-9.80960e-06,0.0056875,-0.00204687
