reproduction/Observation of temporal reflection/data/Time_Interface_Source_Data/2c_raw/tek0002.csv

Model,DPO4104
Firmware Version,2.48

Point Format,Y,,,,Point Format,Y
Horizontal Units,S,,,,Horizontal Units,Hz
Horizontal Scale,2e-06,,,,Horizontal Scale,2.5e+08
Sample Interval,2e-10,,,,Sample Interval,25000
Record Length,100000,,,,Record Length,100000
Gating,0.0% to 100.0%,0.0% to 100.0%,0.0% to 100.0%,,Gating,0.0% to 100.0%
Probe Attenuation,1,1,1,,Probe Attenuation,1
Vertical Units,V,V,V,,Vertical Units,V
Vertical Offset,0,0,0,,Vertical Offset,0
Vertical Scale,0.1,0.1,1,,Vertical Scale,0.0005
Label,,,,,Label,
TIME,CH1,CH2,CH3,,TIME,MATH
-9.86560e-06,0.004625,0.00078125,3.87125,,0.00000e+00,0.000402656
-9.86540e-06,0.004375,0.00053125,3.87172,,2.50000e+04,0.000336562
-9.86520e-06,0.00434375,0.00117188,3.87344,,5.00000e+04,0.000270469
-9.86500e-06,0.00460937,0.0011875,3.87594,,7.50000e+04,0.000150703
-9.86480e-06,0.00476562,0.000921875,3.875,,1.00000e+05,3.09375e-05
-9.86460e-06,0.00442187,0.000625,3.86937,,1.25000e+05,3.16406e-05
-9.86440e-06,0.0044375,0.00121875,3.87203,,1.50000e+05,3.24219e-05
-9.86420e-06,0.0045,0.00107813,3.87188,,1.75000e+05,3.07812e-05
-9.86400e-06,0.00503125,0.00134375,3.875,,2.00000e+05,2.92187e-05
-9.86380e-06,0.00482813,0.00178125,3.87641,,2.25000e+05,2.75781e-05
-9.86360e-06,0.00454687,0.00148438,3.87281,,2.50000e+05,2.59375e-05
-9.86340e-06,0.00473437,0.00159375,3.87625,,2.75000e+05,2.57812e-05
-9.86320e-06,0.00545313,0.00184375,3.87875,,3.00000e+05,2.57031e-05
-9.86300e-06,0.00507813,0.00225,3.87453,,3.25000e+05,2.57812e-05
-9.86280e-06,0.00507813,0.00201562,3.87359,,3.50000e+05,2.59375e-05
-9.86260e-06,0.00517187,0.0019375,3.87359,,3.75000e+05,2.6875e-05
-9.86240e-06,0.00482813,0.00210937,3.87656,,4.00000e+05,2.78906e-05
-9.86220e-06,0.00551562,0.00235937,3.87828,,4.25000e+05,2.90625e-05
-9.86200e-06,0.00570313,0.00217188,3.87969,,4.50000e+05,3.02344e-05
-9.86180e-06,0.0058125,0.00260937,3.87781,,4.75000e+05,2.96094e-05
-9.86160e-06,0.00595313,0.00271875,3.87859,,5.00000e+05,2.89844e-05
-9.86140e-06,0.00598438,0.00242188,3.87875,,5.25000e+05,2.80469e-05
-9.86120e-06,0.00603125,0.00276562,3.87734,,5.50000e+05,2.71875e-05
-9.86100e-06,0.00603125,0.00279688,3.87672,,5.75000e+05,2.71094e-05
-9.86080e-06,0.005875,0.00278125,3.87828,,6.00000e+05,2.70312e-05
-9.86060e-06,0.00585938,0.00276562,3.87797,,6.25000e+05,2.66406e-05
-9.86040e-06,0.00634375,0.00317188,3.87938,,6.50000e+05,2.63281e-05
-9.86020e-06,0.00632812,0.003,3.875,,6.75000e+05,2.53906e-05
-9.86000e-06,0.00629687,0.003,3.88,,7.00000e+05,2.45312e-05
-9.85980e-06,0.00632812,0.003,3.87828,,7.25000e+05,2.35156e-05
-9.85960e-06,0.00646875,0.00321875,3.87844,,7.50000e+05,2.25e-05
-9.85940e-06,0.00645312,0.00340625,3.87984,,7.75000e+05,2.25e-05
-9.85920e-06,0.00670312,0.00373438,3.87844,,8.00000e+05,2.25781e-05
-9.85900e-06,0.00670312,0.00345313,3.87812,,8.25000e+05,2.29687e-05
-9.85880e-06,0.00678125,0.003625,3.87875,,8.50000e+05,2.33594e-05
-9.85860e-06,0.00676562,0.00360937,3.88047,,8.75000e+05,2.33594e-05
-9.85840e-06,0.007125,0.00404688,3.87906,,9.00000e+05,2.33594e-05
-9.85820e-06,0.00704687,0.00371875,3.88125,,9.25000e+05,0.000268281
-9.85800e-06,0.00734375,0.00407813,3.88016,,9.50000e+05,0.000513203
-9.85780e-06,0.00715625,0.00395313,3.88094,,9.75000e+05,0.000762031
-9.85760e-06,0.00732812,0.00409375,3.88031,,1.00000e+06,0.00101094
-9.85740e-06,0.007125,0.00407813,3.88281,,1.02500e+06,0.000764375
-9.85720e-06,0.00710938,0.00389063,3.88078,,1.05000e+06,0.000517891
-9.85700e-06,0.00764062,0.00428125,3.88063,,1.07500e+06,0.000272109
-9.85680e-06,0.00804687,0.0048125,3.88266,,1.10000e+06,2.64062e-05
-9.85660e-06,0.0079375,0.00454688,3.88281,,1.12500e+06,2.64062e-05
-9.85640e-06,0.0075625,0.0040625,3.88219,,1.15000e+06,2.64062e-05
-9.85620e-06,0.007875,0.0044375,3.88141,,1.17500e+06,2.75e-05
-9.85600e-06,0.00759375,0.00475,3.88094,,1.20000e+06,2.85937e-05
-9.85580e-06,0.00782812,0.00475,3.8825,,1.22500e+06,2.86719e-05
-9.85560e-06,0.0075625,0.00489063,3.88078,,1.25000e+06,2.88281e-05
-9.85540e-06,0.007875,0.0049375,3.88437,,1.27500e+06,2.76562e-05
-9.85520e-06,0.00821875,0.00473438,3.88578,,1.30000e+06,2.64844e-05
-9.85500e-06,0.00817187,0.00525,3.88234,,1.32500e+06,2.53125e-05
-9.85480e-06,0.00815625,0.00501562,3.8825,,1.35000e+06,2.41406e-05
-9.85460e-06,0.00825,0.0048125,3.88391,,1.37500e+06,2.39063e-05
-9.85440e-06,0.007875,0.0046875,3.88141,,1.40000e+06,2.36719e-05
-9.85420e-06,0.00832812,0.00503125,3.88125,,1.42500e+06,2.36719e-05
-9.85400e-06,0.00890625,0.00526562,3.88531,,1.45000e+06,2.375e-05
-9.85380e-06,0.00826562,0.00482813,3.88328,,1.47500e+06,2.4375e-05
-9.85360e-06,0.00814062,0.00514063,3.8825,,1.50000e+06,2.5e-05
-9.85340e-06,0.00815625,0.00534375,3.88469,,1.52500e+06,2.53125e-05
-9.85320e-06,0.00871875,0.0054375,3.88656,,1.55000e+06,2.5625e-05
-9.85300e-06,0.00865625,0.00525,3.88312,,1.57500e+06,2.51563e-05
-9.85280e-06,0.0085,0.00510937,3.88375,,1.60000e+06,2.47656e-05
-9.85260e-06,0.00859375,0.00573438,3.88469,,1.62500e+06,2.53125e-05
-9.85240e-06,0.00832812,0.0055,3.8825,,1.65000e+06,2.58594e-05
-9.85220e-06,0.00898438,0.00576562,3.88281,,1.67500e+06,2.625e-05
-9.85200e-06,0.00873438,0.00545313,3.88172,,1.70000e+06,2.67187e-05
-9.85180e-06,0.00839062,0.00517188,3.88563,,1.72500e+06,2.60938e-05
-9.85160e-06,0.0086875,0.00571875,3.88234,,1.75000e+06,2.54687e-05
-9.85140e-06,0.00832812,0.00496875,3.88203,,1.77500e+06,2.50781e-05
-9.85120e-06,0.00854687,0.00540625,3.88156,,1.80000e+06,2.46875e-05
-9.85100e-06,0.0085625,0.00560937,3.88141,,1.82500e+06,2.5e-05
-9.85080e-06,0.00857812,0.00559375,3.88016,,1.85000e+06,2.53125e-05
-9.85060e-06,0.00889062,0.00560937,3.88281,,1.87500e+06,2.53906e-05
-9.85040e-06,0.00946875,0.00559375,3.88266,,1.90000e+06,2.54687e-05
-9.85020e-06,0.00892187,0.0055625,3.88516,,1.92500e+06,0.000125859
-9.85000e-06,0.00832812,0.00535937,3.88094,,1.95000e+06,0.000226328
-9.84980e-06,0.00876562,0.00570313,3.88094,,1.97500e+06,0.000326875
-9.84960e-06,0.00907812,0.005875,3.88094,,2.00000e+06,0.000427422
-9.84940e-06,0.00920312,0.0058125,3.88344,,2.02500e+06,0.000326484
-9.84920e-06,0.0093125,0.0058125,3.88,,2.05000e+06,0.000225547
-9.84900e-06,0.0089375,0.00553125,3.88094,,2.07500e+06,0.000124766
-9.84880e-06,0.009125,0.00560937,3.88187,,2.10000e+06,2.39844e-05
-9.84860e-06,0.00928125,0.00565625,3.88094,,2.12500e+06,2.33594e-05
-9.84840e-06,0.00907812,0.00579688,3.88109,,2.15000e+06,2.27344e-05
-9.84820e-06,0.0091875,0.00575,3.87797,,2.17500e+06,2.3125e-05
-9.84800e-06,0.009125,0.00567188,3.88031,,2.20000e+06,2.35156e-05
-9.84780e-06,0.00882812,0.00548438,3.87875,,2.22500e+06,2.35937e-05
-9.84760e-06,0.00951562,0.00584375,3.88125,,2.25000e+06,2.375e-05
-9.84740e-06,0.00892187,0.00557813,3.87906,,2.27500e+06,2.32031e-05
-9.84720e-06,0.00896875,0.00590625,3.87953,,2.30000e+06,2.26562e-05
-9.84700e-06,0.00875,0.00571875,3.87766,,2.32500e+06,2.35937e-05
-9.84680e-06,0.00928125,0.00590625,3.87938,,2.35000e+06,2.46094e-05
-9.84660e-06,0.009375,0.00578125,3.87938,,2.37500e+06,2.57031e-05
-9.84640e-06,0.009,0.0055625,3.87891,,2.40000e+06,2.67969e-05
-9.84620e-06,0.00910938,0.00578125,3.87922,,2.42500e+06,2.63281e-05
-9.84600e-06,0.00907812,0.00575,3.87781,,2.45000e+06,2.59375e-05
-9.84580e-06,0.00946875,0.0058125,3.87766,,2.47500e+06,2.55469e-05
-9.84560e-06,0.0086875,0.00573438,3.87594,,2.50000e+06,2.51563e-05
-9.84540e-06,0.0088125,0.00565625,3.87531,,2.52500e+06,2.50781e-05
-9.84520e-06,0.00901562,0.00571875,3.87859,,2.55000e+06,2.5e-05
-9.84500e-06,0.00845312,0.00570313,3.87641,,2.57500e+06,2.49219e-05
-9.84480e-06,0.00910938,0.005875,3.87938,,2.60000e+06,2.49219e-05
-9.84460e-06,0.00865625,0.0060625,3.87641,,2.62500e+06,2.50781e-05
-9.84440e-06,0.00889062,0.00617187,3.87688,,2.65000e+06,2.52344e-05
-9.84420e-06,0.00903125,0.005875,3.87766,,2.67500e+06,2.5e-05
-9.84400e-06,0.00928125,0.006,3.87656,,2.70000e+06,2.48437e-05
-9.84380e-06,0.00879687,0.006,3.87437,,2.72500e+06,2.46094e-05
-9.84360e-06,0.00825,0.0059375,3.87266,,2.75000e+06,2.44531e-05
-9.84340e-06,0.00817187,0.00585938,3.87656,,2.77500e+06,2.39063e-05
-9.84320e-06,0.00857812,0.00598438,3.87563,,2.80000e+06,2.34375e-05
-9.84300e-06,0.00865625,0.0061875,3.87688,,2.82500e+06,2.3125e-05
-9.84280e-06,0.0088125,0.006,3.87594,,2.85000e+06,2.28906e-05
-9.84260e-06,0.00851562,0.0060625,3.87203,,2.87500e+06,2.28125e-05
-9.84240e-06,0.00842187,0.00595313,3.87281,,2.90000e+06,2.28125e-05
-9.84220e-06,0.00851562,0.00592188,3.87375,,2.92500e+06,0.000301953
-9.84200e-06,0.00845312,0.00604688,3.8725,,2.95000e+06,0.000581172
-9.84180e-06,0.00834375,0.0061875,3.87375,,2.97500e+06,0.000875625
-9.84160e-06,0.0078125,0.005875,3.8725,,3.00000e+06,0.00117016
-9.84140e-06,0.0078125,0.00596875,3.87312,,3.02500e+06,0.000878281
-9.84120e-06,0.00864062,0.0060625,3.87578,,3.05000e+06,0.000586484
-9.84100e-06,0.00779687,0.00590625,3.86922,,3.07500e+06,0.000305547
-9.84080e-06,0.00782812,0.00590625,3.87266,,3.10000e+06,2.46094e-05
-9.84060e-06,0.00789062,0.0061875,3.87359,,3.12500e+06,2.45312e-05
-9.84040e-06,0.00803125,0.00615625,3.87437,,3.15000e+06,2.44531e-05
-9.84020e-06,0.00815625,0.0061875,3.87469,,3.17500e+06,2.50781e-05
-9.84000e-06,0.00782812,0.00601562,3.87062,,3.20000e+06,2.57812e-05
-9.83980e-06,0.00764062,0.00639063,3.87125,,3.22500e+06,2.55469e-05
-9.83960e-06,0.00803125,0.00626562,3.8725,,3.25000e+06,2.53125e-05
-9.83940e-06,0.00803125,0.00642187,3.87328,,3.27500e+06,2.5625e-05
-9.83920e-06,0.00745312,0.00614063,3.86813,,3.30000e+06,2.59375e-05
-9.83900e-06,0.00765625,0.00639063,3.86813,,3.32500e+06,2.65625e-05
-9.83880e-06,0.007875,0.00615625,3.87156,,3.35000e+06,2.71875e-05
-9.83860e-06,0.00767187,0.0063125,3.86797,,3.37500e+06,2.63281e-05
-9.83840e-06,0.00742187,0.00615625,3.87172,,3.40000e+06,2.54687e-05
-9.83820e-06,0.00770312,0.00601562,3.87125,,3.42500e+06,2.47656e-05
-9.83800e-06,0.00742187,0.00609375,3.86922,,3.45000e+06,2.40625e-05
-9.83780e-06,0.00746875,0.0060625,3.87047,,3.47500e+06,2.41406e-05
-9.83760e-06,0.0076875,0.00609375,3.87359,,3.50000e+06,2.42969e-05
-9.83740e-06,0.007375,0.00604688,3.86937,,3.52500e+06,2.4375e-05
-9.83720e-06,0.00720312,0.00623438,3.86578,,3.55000e+06,2.44531e-05
-9.83700e-06,0.00739062,0.00620313,3.86688,,3.57500e+06,2.46094e-05
-9.83680e-06,0.00751562,0.00601562,3.86734,,3.60000e+06,2.48437e-05
-9.83660e-06,0.00714062,0.005875,3.87016,,3.62500e+06,2.46875e-05
-9.83640e-06,0.00689062,0.00607813,3.86906,,3.65000e+06,2.45312e-05
-9.83620e-06,0.00710938,0.00610938,3.87016,,3.67500e+06,2.42969e-05
-9.83600e-06,0.00765625,0.00595313,3.86922,,3.70000e+06,2.40625e-05
-9.83580e-06,0.00701562,0.00590625,3.87094,,3.72500e+06,2.44531e-05
-9.83560e-06,0.00689062,0.00607813,3.86969,,3.75000e+06,2.48437e-05
-9.83540e-06,0.00723438,0.00571875,3.86516,,3.77500e+06,2.48437e-05
-9.83520e-06,0.0066875,0.00564063,3.86437,,3.80000e+06,2.48437e-05
-9.83500e-06,0.00695312,0.00534375,3.86937,,3.82500e+06,2.40625e-05
-9.83480e-06,0.007625,0.005875,3.87234,,3.85000e+06,2.32812e-05
-9.83460e-06,0.0065625,0.00529688,3.865,,3.87500e+06,2.26562e-05
-9.83440e-06,0.00710938,0.00539063,3.86859,,3.90000e+06,2.21094e-05
-9.83420e-06,0.00671875,0.00564063,3.86547,,3.92500e+06,0.000336328
-9.83400e-06,0.00717187,0.00559375,3.87016,,3.95000e+06,0.000650547
-9.83380e-06,0.00692187,0.00545313,3.87219,,3.97500e+06,0.000968203
-9.83360e-06,0.0066875,0.00509375,3.86953,,4.00000e+06,0.00128594
-9.83340e-06,0.00673438,0.00551562,3.86969,,4.02500e+06,0.000971172
-9.83320e-06,0.00679687,0.00523438,3.8725,,4.05000e+06,0.000656484
-9.83300e-06,0.0068125,0.00540625,3.87328,,4.07500e+06,0.000341797
-9.83280e-06,0.00670312,0.00492188,3.86844,,4.10000e+06,2.71875e-05
-9.83260e-06,0.00689062,0.0048125,3.86844,,4.12500e+06,2.625e-05
-9.83240e-06,0.00695312,0.00485937,3.86828,,4.15000e+06,2.53906e-05
-9.83220e-06,0.0065,0.004375,3.86422,,4.17500e+06,2.50781e-05
-9.83200e-06,0.006375,0.0048125,3.87219,,4.20000e+06,2.48437e-05
-9.83180e-06,0.00671875,0.00470313,3.86547,,4.22500e+06,2.51563e-05
-9.83160e-06,0.00634375,0.00471875,3.86922,,4.25000e+06,2.55469e-05
-9.83140e-06,0.00646875,0.00435937,3.87031,,4.27500e+06,2.53125e-05
-9.83120e-06,0.00632812,0.00484375,3.87516,,4.30000e+06,2.50781e-05
-9.83100e-06,0.006625,0.00451562,3.86922,,4.32500e+06,2.51563e-05
-9.83080e-06,0.00639062,0.00403125,3.86469,,4.35000e+06,2.52344e-05
-9.83060e-06,0.00623438,0.00389063,3.87078,,4.37500e+06,2.53906e-05
-9.83040e-06,0.00620312,0.003875,3.87031,,4.40000e+06,2.5625e-05
-9.83020e-06,0.00646875,0.00426562,3.875,,4.42500e+06,2.48437e-05
-9.83000e-06,0.00615625,0.00364063,3.87141,,4.45000e+06,2.40625e-05
-9.82980e-06,0.00653125,0.003625,3.87,,4.47500e+06,2.35156e-05
-9.82960e-06,0.00665625,0.00409375,3.87125,,4.50000e+06,2.29687e-05
-9.82940e-06,0.00614062,0.00389063,3.87266,,4.52500e+06,2.3125e-05
-9.82920e-06,0.00639062,0.00384375,3.87,,4.55000e+06,2.32812e-05
-9.82900e-06,0.006375,0.00371875,3.87078,,4.57500e+06,2.41406e-05
-9.82880e-06,0.00604687,0.00323438,3.86828,,4.60000e+06,2.50781e-05
-9.82860e-06,0.00603125,0.00332813,3.87109,,4.62500e+06,2.5625e-05
-9.82840e-06,0.00659375,0.003875,3.87406,,4.65000e+06,2.625e-05
-9.82820e-06,0.00620312,0.00295313,3.86688,,4.67500e+06,2.59375e-05
-9.82800e-06,0.00620312,0.00339063,3.87094,,4.70000e+06,2.5625e-05
-9.82780e-06,0.006,0.0030625,3.87297,,4.72500e+06,2.57812e-05
-9.82760e-06,0.00620312,0.00317188,3.87437,,4.75000e+06,2.60156e-05
-9.82740e-06,0.00615625,0.00295313,3.87391,,4.77500e+06,2.59375e-05
-9.82720e-06,0.00632812,0.00260937,3.87156,,4.80000e+06,2.59375e-05
-9.82700e-06,0.00640625,0.0026875,3.87266,,4.82500e+06,2.50781e-05
-9.82680e-06,0.00610938,0.002875,3.87281,,4.85000e+06,2.42969e-05
-9.82660e-06,0.00623438,0.00273438,3.87547,,4.87500e+06,2.40625e-05
-9.82640e-06,0.00585938,0.00271875,3.87078,,4.90000e+06,2.38281e-05
-9.82620e-06,0.006375,0.0031875,3.87125,,4.92500e+06,0.000154922
-9.82600e-06,0.00604687,0.00253125,3.87328,,4.95000e+06,0.000286094
-9.82580e-06,0.00592187,0.00282813,3.87,,4.97500e+06,0.000440703
-9.82560e-06,0.00582813,0.00217188,3.87531,,5.00000e+06,0.000595391
-9.82540e-06,0.00570313,0.0024375,3.87297,,5.02500e+06,0.000439766
-9.82520e-06,0.0060625,0.00264063,3.87234,,5.05000e+06,0.000284219
-9.82500e-06,0.00584375,0.00251562,3.87594,,5.07500e+06,0.000155391
-9.82480e-06,0.006,0.00246875,3.87672,,5.10000e+06,2.66406e-05
-9.82460e-06,0.005625,0.00229688,3.87219,,5.12500e+06,2.625e-05
-9.82440e-06,0.00546875,0.0024375,3.87297,,5.15000e+06,2.58594e-05
-9.82420e-06,0.00575,0.00246875,3.87297,,5.17500e+06,2.63281e-05
-9.82400e-06,0.00603125,0.00201562,3.87297,,5.20000e+06,2.67969e-05
-9.82380e-06,0.00582813,0.00232813,3.87688,,5.22500e+06,2.71875e-05
-9.82360e-06,0.00592187,0.00214063,3.87563,,5.25000e+06,2.75781e-05
-9.82340e-06,0.0055625,0.00232813,3.87406,,5.27500e+06,2.70312e-05
-9.82320e-06,0.00578125,0.0025,3.87344,,5.30000e+06,2.65625e-05
-9.82300e-06,0.00560937,0.00215625,3.87563,,5.32500e+06,2.64062e-05
-9.82280e-06,0.0051875,0.00223438,3.87156,,5.35000e+06,2.625e-05
-9.82260e-06,0.00553125,0.002375,3.87406,,5.37500e+06,2.65625e-05
-9.82240e-06,0.00559375,0.0021875,3.87672,,5.40000e+06,2.69531e-05
-9.82220e-06,0.00535937,0.00203125,3.87266,,5.42500e+06,2.65625e-05
-9.82200e-06,0.00573437,0.00253125,3.87891,,5.45000e+06,2.625e-05
-9.82180e-06,0.00509375,0.002125,3.87328,,5.47500e+06,2.59375e-05
-9.82160e-06,0.00529687,0.00209375,3.87453,,5.50000e+06,2.57031e-05
-9.82140e-06,0.00554687,0.00203125,3.87656,,5.52500e+06,2.625e-05
-9.82120e-06,0.00545313,0.002,3.87766,,5.55000e+06,2.67969e-05
-9.82100e-06,0.0055625,0.00196875,3.87625,,5.57500e+06,2.69531e-05
-9.82080e-06,0.00510937,0.0020625,3.87437,,5.60000e+06,2.71094e-05
-9.82060e-06,0.00576562,0.00221875,3.87797,,5.62500e+06,2.70312e-05
-9.82040e-06,0.00526562,0.00179688,3.87719,,5.65000e+06,2.69531e-05
-9.82020e-06,0.00578125,0.00204688,3.87844,,5.67500e+06,2.70312e-05
-9.82000e-06,0.005375,0.00195312,3.87609,,5.70000e+06,2.71094e-05
-9.81980e-06,0.00485937,0.00209375,3.87422,,5.72500e+06,2.71875e-05
-9.81960e-06,0.00546875,0.00192188,3.87781,,5.75000e+06,2.73438e-05
-9.81940e-06,0.00490625,0.00164063,3.87484,,5.77500e+06,2.72656e-05
-9.81920e-06,0.00548437,0.00190625,3.87844,,5.80000e+06,2.72656e-05
-9.81900e-06,0.00503125,0.00175,3.87469,,5.82500e+06,2.71094e-05
-9.81880e-06,0.00503125,0.00214063,3.87594,,5.85000e+06,2.70312e-05
-9.81860e-06,0.00492187,0.00184375,3.87734,,5.87500e+06,2.67187e-05
-9.81840e-06,0.00560937,0.00195312,3.87828,,5.90000e+06,2.64062e-05
-9.81820e-06,0.00490625,0.0014375,3.87344,,5.92500e+06,0.000415078
-9.81800e-06,0.00484375,0.00195312,3.87516,,5.95000e+06,0.00080375
-9.81780e-06,0.00510937,0.00184375,3.87688,,5.97500e+06,0.00121164
-9.81760e-06,0.00507813,0.00201562,3.87844,,6.00000e+06,0.00161961
-9.81740e-06,0.00510937,0.00190625,3.87828,,6.02500e+06,0.00121437
-9.81720e-06,0.00485937,0.00153125,3.87531,,6.05000e+06,0.000809141
-9.81700e-06,0.00510937,0.00157813,3.87672,,6.07500e+06,0.000418281
-9.81680e-06,0.00467187,0.001375,3.87734,,6.10000e+06,2.74219e-05
-9.81660e-06,0.00504687,0.00176563,3.87781,,6.12500e+06,2.75781e-05
-9.81640e-06,0.0050625,0.00126563,3.87781,,6.15000e+06,2.77344e-05
-9.81620e-06,0.00498437,0.00148438,3.87734,,6.17500e+06,2.80469e-05
-9.81600e-06,0.00445313,0.00126563,3.87734,,6.20000e+06,2.83594e-05
-9.81580e-06,0.00498437,0.00145312,3.87688,,6.22500e+06,2.85156e-05
-9.81560e-06,0.00504687,0.0014375,3.87953,,6.25000e+06,2.875e-05
-9.81540e-06,0.00434375,0.00104688,3.87437,,6.27500e+06,2.875e-05
-9.81520e-06,0.00492187,0.00114063,3.87609,,6.30000e+06,2.88281e-05
-9.81500e-06,0.00459375,0.00128125,3.87781,,6.32500e+06,2.90625e-05
-9.81480e-06,0.00473437,0.0013125,3.87906,,6.35000e+06,2.92969e-05
-9.81460e-06,0.00504687,0.00167188,3.87891,,6.37500e+06,2.96875e-05
-9.81440e-06,0.00475,0.00134375,3.87547,,6.40000e+06,3.00781e-05
-9.81420e-06,0.00440625,0.00134375,3.87906,,6.42500e+06,2.99219e-05
-9.81400e-06,0.00446875,0.00126563,3.87641,,6.45000e+06,2.97656e-05
-9.81380e-06,0.00501562,0.00148438,3.8775,,6.47500e+06,3.03125e-05
-9.81360e-06,0.00460937,0.00117188,3.87578,,6.50000e+06,3.08594e-05
-9.81340e-06,0.0043125,0.00109375,3.875,,6.52500e+06,3.15625e-05
-9.81320e-06,0.004125,0.00110937,3.87656,,6.55000e+06,3.22656e-05
-9.81300e-06,0.00403125,0.0008125,3.87453,,6.57500e+06,3.17188e-05
-9.81280e-06,0.004625,0.0013125,3.87766,,6.60000e+06,3.125e-05
-9.81260e-06,0.004375,0.0008125,3.87594,,6.62500e+06,3.125e-05
-9.81240e-06,0.0039375,0.00065625,3.87609,,6.65000e+06,3.125e-05
-9.81220e-06,0.004,0.000953125,3.87703,,6.67500e+06,3.20312e-05
-9.81200e-06,0.0050625,0.00139063,3.87891,,6.70000e+06,3.28125e-05
-9.81180e-06,0.00451562,0.000828125,3.8725,,6.72500e+06,3.27344e-05
-9.81160e-06,0.00414062,0.000734375,3.87359,,6.75000e+06,3.26562e-05
-9.81140e-06,0.0043125,0.00110937,3.87437,,6.77500e+06,3.21094e-05
-9.81120e-06,0.00453125,0.00084375,3.87609,,6.80000e+06,3.16406e-05
-9.81100e-06,0.00473437,0.000921875,3.87828,,6.82500e+06,3.14844e-05
-9.81080e-06,0.00471875,0.00090625,3.87672,,6.85000e+06,3.14062e-05
-9.81060e-06,0.0045,0.000625,3.87547,,6.87500e+06,3.07031e-05
-9.81040e-06,0.00464062,0.000796875,3.87703,,6.90000e+06,3.00781e-05
-9.81020e-06,0.00476562,0.00145312,3.87719,,6.92500e+06,0.000222109
-9.81000e-06,0.004625,0.00101563,3.87375,,6.95000e+06,0.000414141
-9.80980e-06,0.00434375,0.0005,3.87234,,6.97500e+06,0.000608828
-9.80960e-06,0.00426562,0.000484375,3.87625,,7.00000e+06,0.000803516
-9.80940e-06,0.00453125,0.00075,3.87547,,7.02500e+06,0.000611328
-9.80920e-06,0.00459375,0.001125,3.87719,,7.05000e+06,0.000419141
-9.80900e-06,0.00389062,0.0005625,3.87328,,7.07500e+06,0.000226328
-9.80880e-06,0.00415625,0.000859375,3.87406,,7.10000e+06,3.35156e-05
-9.80860e-06,0.00426562,0.00040625,3.87734,,7.12500e+06,3.36719e-05
-9.80840e-06,0.00451562,0.000875,3.87609,,7.15000e+06,3.39063e-05
-9.80820e-06,0.00498437,0.00114063,3.87594,,7.17500e+06,3.32031e-05
-9.80800e-06,0.00440625,0.00078125,3.87234,,7.20000e+06,3.25e-05
-9.80780e-06,0.004375,0.000390625,3.87219,,7.22500e+06,3.22656e-05
-9.80760e-06,0.00423437,0.000453125,3.87219,,7.25000e+06,3.20312e-05
