reproduction/Observation of temporal reflection/data/Time_Interface_Source_Data/1f_raw/tek0000.csv

Model,DPO4104
Firmware Version,2.48

Point Format,Y,,
Horizontal Units,S,,
Horizontal Scale,2e-06,,
Sample Interval,2e-10,,
Record Length,100000,,
Gating,0.0% to 100.0%,0.0% to 100.0%,0.0% to 100.0%
Probe Attenuation,1,1,1
Vertical Units,V,V,V
Vertical Offset,0,0,0
Vertical Scale,0.1,0.1,2
Label,,,
TIME,CH1,CH2,CH3
-9.93720e-06,-0.000109375,-0.00448437,5.85313
-9.93700e-06,-0.0005,-0.0039375,5.84656
-9.93680e-06,-0.000390625,-0.00371875,5.83969
-9.93660e-06,-0.000234375,-0.00351563,5.8275
-9.93640e-06,-1.5625e-05,-0.00385937,5.82344
-9.93620e-06,0.000328125,-0.0039375,5.82625
-9.93600e-06,1.5625e-05,-0.004125,5.82344
-9.93580e-06,0.00021875,-0.00398437,5.81219
-9.93560e-06,0.000640625,-0.00359375,5.80594
-9.93540e-06,0.000328125,-0.0038125,5.80813
-9.93520e-06,0.000359375,-0.003875,5.81156
-9.93500e-06,0.000984375,-0.00335937,5.80531
-9.93480e-06,0.000828125,-0.00365625,5.81031
-9.93460e-06,0.000890625,-0.0034375,5.80063
-9.93440e-06,0.0006875,-0.00321875,5.80719
-9.93420e-06,0.000984375,-0.00329687,5.80313
-9.93400e-06,0.000984375,-0.00285937,5.79875
-9.93380e-06,0.00115625,-0.002875,5.805
-9.93360e-06,0.00109375,-0.00340625,5.81344
-9.93340e-06,0.00101563,-0.00317187,5.80469
-9.93320e-06,0.000734375,-0.00309375,5.80875
-9.93300e-06,0.000609375,-0.003125,5.80438
-9.93280e-06,0.00110938,-0.00340625,5.80438
-9.93260e-06,0.0011875,-0.00315625,5.80781
-9.93240e-06,0.0010625,-0.003625,5.83281
-9.93220e-06,0.00132813,-0.00340625,5.85
-9.93200e-06,0.001375,-0.0036875,5.84813
-9.93180e-06,0.00139063,-0.0038125,5.84281
-9.93160e-06,0.00164063,-0.00351563,5.84219
-9.93140e-06,0.00195312,-0.00359375,5.85313
-9.93120e-06,0.00184375,-0.0036875,5.85438
-9.93100e-06,0.00195312,-0.00378125,5.8575
-9.93080e-06,0.00165625,-0.00360937,5.87031
-9.93060e-06,0.00165625,-0.00354688,5.88813
-9.93040e-06,0.00176563,-0.00339062,5.90375
-9.93020e-06,0.00207813,-0.003625,5.91125
-9.93000e-06,0.00189063,-0.00385937,5.9225
-9.92980e-06,0.00254688,-0.00401562,5.94438
-9.92960e-06,0.00182813,-0.00360937,5.95031
-9.92940e-06,0.00195312,-0.0039375,5.96156
-9.92920e-06,0.00173438,-0.00335937,5.96312
-9.92900e-06,0.00192188,-0.00375,5.96906
-9.92880e-06,0.00203125,-0.00395313,5.97625
-9.92860e-06,0.00271875,-0.0040625,5.98344
-9.92840e-06,0.0024375,-0.00440625,6.00469
-9.92820e-06,0.002125,-0.00410937,6.00813
-9.92800e-06,0.002625,-0.004,6.01281
-9.92780e-06,0.00220313,-0.00420312,6.02406
-9.92760e-06,0.00235938,-0.00445313,6.02813
-9.92740e-06,0.00239063,-0.00445313,6.0375
-9.92720e-06,0.00282813,-0.00426562,6.05281
-9.92700e-06,0.00289063,-0.00384375,6.05969
-9.92680e-06,0.00279688,-0.00365625,6.06938
-9.92660e-06,0.002625,-0.00359375,6.06906
-9.92640e-06,0.00260938,-0.00371875,6.07437
-9.92620e-06,0.00271875,-0.00390625,6.07719
-9.92600e-06,0.00304688,-0.0043125,6.08688
-9.92580e-06,0.0030625,-0.0035625,6.09906
-9.92560e-06,0.00296875,-0.003875,6.10594
-9.92540e-06,0.00314063,-0.00392188,6.10344
-9.92520e-06,0.003,-0.00403125,6.1125
-9.92500e-06,0.00376563,-0.00367187,6.11375
-9.92480e-06,0.00339063,-0.0039375,6.13063
-9.92460e-06,0.0029375,-0.00392188,6.12969
-9.92440e-06,0.00303125,-0.00371875,6.12969
-9.92420e-06,0.003375,-0.004,6.13469
-9.92400e-06,0.00329688,-0.00395313,6.14375
-9.92380e-06,0.0035,-0.00404688,6.15531
-9.92360e-06,0.0036875,-0.00370312,6.16
-9.92340e-06,0.0035,-0.00360937,6.16781
-9.92320e-06,0.00340625,-0.00379687,6.16812
-9.92300e-06,0.003875,-0.0035625,6.17938
-9.92280e-06,0.00403125,-0.00376562,6.19406
-9.92260e-06,0.0038125,-0.00379687,6.1975
-9.92240e-06,0.00373438,-0.00335937,6.19344
-9.92220e-06,0.00379688,-0.00304688,6.18594
-9.92200e-06,0.00378125,-0.00335937,6.20281
-9.92180e-06,0.00359375,-0.00329687,6.19937
-9.92160e-06,0.00375,-0.00315625,6.20875
-9.92140e-06,0.00378125,-0.00295313,6.21094
-9.92120e-06,0.004125,-0.00271875,6.21844
-9.92100e-06,0.0040625,-0.00321875,6.22813
-9.92080e-06,0.00390625,-0.0031875,6.22625
-9.92060e-06,0.00382813,-0.00279687,6.22125
-9.92040e-06,0.00451563,-0.00275,6.22656
-9.92020e-06,0.0043125,-0.00273438,6.22125
-9.92000e-06,0.00451563,-0.00275,6.22719
-9.91980e-06,0.00429688,-0.00317187,6.22688
-9.91960e-06,0.0045625,-0.00292188,6.23406
-9.91940e-06,0.0045625,-0.00271875,6.23406
-9.91920e-06,0.00421875,-0.0026875,6.22375
-9.91900e-06,0.00398438,-0.00239062,6.21719
-9.91880e-06,0.00421875,-0.00209375,6.22656
-9.91860e-06,0.00425,-0.00203125,6.22844
-9.91840e-06,0.00435937,-0.00170312,6.235
-9.91820e-06,0.004375,-0.00246875,6.24281
-9.91800e-06,0.00442188,-0.00234375,6.23281
-9.91780e-06,0.00482813,-0.00195312,6.22438
-9.91760e-06,0.00464063,-0.00176562,6.21781
-9.91740e-06,0.00421875,-0.00185937,6.21875
-9.91720e-06,0.00432813,-0.00204688,6.20625
-9.91700e-06,0.0045625,-0.00179687,6.20156
-9.91680e-06,0.00489063,-0.00135937,6.20094
-9.91660e-06,0.00490625,-0.0013125,6.20219
-9.91640e-06,0.0045,-0.00148437,6.21188
-9.91620e-06,0.004875,-0.00157812,6.20406
-9.91600e-06,0.005125,-0.001375,6.19375
-9.91580e-06,0.00510937,-0.00128125,6.1725
-9.91560e-06,0.005,-0.00151563,6.16594
-9.91540e-06,0.005125,-0.00159375,6.16125
-9.91520e-06,0.00489063,-0.0013125,6.16656
-9.91500e-06,0.00507813,-0.0010625,6.16688
-9.91480e-06,0.0055,-0.00096875,6.16719
-9.91460e-06,0.00509375,-0.00114063,6.14563
-9.91440e-06,0.00490625,-0.00114063,6.13438
-9.91420e-06,0.00548438,-0.00028125,6.13938
-9.91400e-06,0.00520313,-0.00090625,6.12938
-9.91380e-06,0.00526563,-0.0008125,6.12
-9.91360e-06,0.00564063,-0.00084375,6.1225
-9.91340e-06,0.00525,-0.00065625,6.1175
-9.91320e-06,0.00504688,-0.0005625,6.11063
-9.91300e-06,0.005375,-0.000671875,6.09906
-9.91280e-06,0.00521875,-0.00101563,6.08375
-9.91260e-06,0.00521875,-0.00103125,6.08125
-9.91240e-06,0.00559375,-0.00109375,6.07344
-9.91220e-06,0.00571875,-0.00125,6.06031
-9.91200e-06,0.0055,-0.001125,6.04594
-9.91180e-06,0.005375,-0.00142188,6.05063
-9.91160e-06,0.00545313,-0.00134375,6.05313
-9.91140e-06,0.005125,-0.0013125,6.05594
-9.91120e-06,0.00523438,-0.00101563,6.04156
-9.91100e-06,0.00570313,-0.00123438,6.02875
-9.91080e-06,0.00573438,-0.00167187,6.03375
-9.91060e-06,0.00592188,-0.00121875,6.02781
-9.91040e-06,0.00571875,-0.00179687,6.02875
-9.91020e-06,0.00535937,-0.00121875,6.01562
-9.91000e-06,0.00567188,-0.0015,6.01531
-9.90980e-06,0.0054375,-0.00154688,6.02
-9.90960e-06,0.0055,-0.00201563,6.01094
-9.90940e-06,0.00529688,-0.0015,6.00719
-9.90920e-06,0.0055,-0.00132813,6.0025
-9.90900e-06,0.00560937,-0.00215625,5.99844
-9.90880e-06,0.00570313,-0.00242188,6.00438
-9.90860e-06,0.00557813,-0.00210937,6.00219
-9.90840e-06,0.00529688,-0.0019375,6
-9.90820e-06,0.0053125,-0.00203125,5.98625
-9.90800e-06,0.00542188,-0.00229687,5.99469
-9.90780e-06,0.00579688,-0.00234375,5.99094
-9.90760e-06,0.00520313,-0.00271875,5.99313
-9.90740e-06,0.00534375,-0.00260937,5.98375
-9.90720e-06,0.0053125,-0.00232813,5.9775
-9.90700e-06,0.00510937,-0.00264063,5.97188
-9.90680e-06,0.00540625,-0.00292188,5.97344
-9.90660e-06,0.0049375,-0.00303125,5.98031
-9.90640e-06,0.00503125,-0.00351563,5.98406
-9.90620e-06,0.00482813,-0.0031875,5.99063
-9.90600e-06,0.00496875,-0.00339062,5.9875
-9.90580e-06,0.00514063,-0.00328125,5.98344
-9.90560e-06,0.0046875,-0.00348437,5.9875
-9.90540e-06,0.00479688,-0.0035625,5.98563
-9.90520e-06,0.0046875,-0.00389062,5.9825
-9.90500e-06,0.0048125,-0.004,5.98875
-9.90480e-06,0.00467188,-0.004125,5.995
-9.90460e-06,0.0045625,-0.00429687,5.99125
-9.90440e-06,0.00414063,-0.00420312,5.99531
-9.90420e-06,0.00396875,-0.00415625,5.98844
-9.90400e-06,0.00445313,-0.00453125,5.99688
-9.90380e-06,0.00460937,-0.00473438,5.99906
-9.90360e-06,0.0044375,-0.00453125,5.99719
-9.90340e-06,0.00471875,-0.00465625,5.98594
-9.90320e-06,0.00390625,-0.00509375,5.99219
-9.90300e-06,0.00429688,-0.005,6.00188
-9.90280e-06,0.00420313,-0.00492188,6.00531
-9.90260e-06,0.00453125,-0.00492188,6.01531
-9.90240e-06,0.00448438,-0.00529687,6.01438
-9.90220e-06,0.00454688,-0.0053125,6.01031
-9.90200e-06,0.00470313,-0.00507812,6.00438
-9.90180e-06,0.00470313,-0.00501562,6.00781
-9.90160e-06,0.00426563,-0.00529687,6.01313
-9.90140e-06,0.00428125,-0.0055625,6.00656
-9.90120e-06,0.00390625,-0.00532813,6.01313
-9.90100e-06,0.00409375,-0.00539062,6.00781
-9.90080e-06,0.00432813,-0.00509375,6.01031
-9.90060e-06,0.00425,-0.00571875,6.02125
-9.90040e-06,0.00440625,-0.0058125,6.0325
-9.90020e-06,0.00417188,-0.00579687,6.05156
-9.90000e-06,0.00403125,-0.00573438,6.04688
-9.89980e-06,0.0041875,-0.0053125,6.06594
-9.89960e-06,0.00389063,-0.005625,6.06781
-9.89940e-06,0.00432813,-0.00564063,6.06656
-9.89920e-06,0.00409375,-0.00514063,6.07781
-9.89900e-06,0.00484375,-0.00584375,6.08656
-9.89880e-06,0.004375,-0.00564063,6.08531
-9.89860e-06,0.00465625,-0.00589062,6.08094
-9.89840e-06,0.00440625,-0.00557812,6.08688
-9.89820e-06,0.0044375,-0.005625,6.07781
-9.89800e-06,0.00460937,-0.00582813,6.08219
-9.89780e-06,0.0044375,-0.00540625,6.10156
-9.89760e-06,0.003875,-0.005,6.10656
-9.89740e-06,0.00398438,-0.00459375,6.11563
-9.89720e-06,0.00398438,-0.00501562,6.12625
-9.89700e-06,0.00451563,-0.00548437,6.12656
-9.89680e-06,0.00434375,-0.00523438,6.12188
-9.89660e-06,0.00434375,-0.00482813,6.12438
-9.89640e-06,0.00454688,-0.00460937,6.11781
-9.89620e-06,0.00439063,-0.00429687,6.11594
-9.89600e-06,0.00457813,-0.0044375,6.12406
-9.89580e-06,0.00442188,-0.00484375,6.13406
-9.89560e-06,0.00445313,-0.00434375,6.13969
-9.89540e-06,0.00470313,-0.00451562,6.14125
-9.89520e-06,0.00459375,-0.004,6.13
-9.89500e-06,0.004375,-0.00390625,6.14219
-9.89480e-06,0.00453125,-0.00364063,6.155
-9.89460e-06,0.00451563,-0.00379687,6.15625
-9.89440e-06,0.0045625,-0.00385937,6.15062
-9.89420e-06,0.00457813,-0.00364063,6.14125
-9.89400e-06,0.00432813,-0.00375,6.15594
-9.89380e-06,0.00454688,-0.00334375,6.15813
-9.89360e-06,0.00415625,-0.0033125,6.15
-9.89340e-06,0.00453125,-0.0029375,6.16938
-9.89320e-06,0.00445313,-0.002875,6.17375
-9.89300e-06,0.00446875,-0.00292188,6.17094
-9.89280e-06,0.00460937,-0.00276562,6.16781
-9.89260e-06,0.00434375,-0.00285937,6.15
-9.89240e-06,0.00426563,-0.00203125,6.15719
-9.89220e-06,0.00482813,-0.002125,6.15469
-9.89200e-06,0.00503125,-0.001375,6.15344
-9.89180e-06,0.00453125,-0.00204688,6.14625
-9.89160e-06,0.00446875,-0.00217187,6.14313
-9.89140e-06,0.00432813,-0.00196875,6.14062
-9.89120e-06,0.00429688,-0.00171875,6.13781
-9.89100e-06,0.0045,-0.00146875,6.14031
-9.89080e-06,0.00396875,-0.00153125,6.14688
-9.89060e-06,0.00401563,-0.00157812,6.14813
-9.89040e-06,0.00415625,-0.00104688,6.15031
-9.89020e-06,0.0045,-0.0009375,6.15406
-9.89000e-06,0.00442188,-0.000890625,6.15375
-9.88980e-06,0.00385938,-0.00075,6.14656
-9.88960e-06,0.00434375,-0.0004375,6.13969
-9.88940e-06,0.00445313,-0.000890625,6.1275
-9.88920e-06,0.00432813,-0.000390625,6.13281
-9.88900e-06,0.0048125,-0.00040625,6.1425
-9.88880e-06,0.00442188,-0.0003125,6.15219
-9.88860e-06,0.00440625,0.000234375,6.14563
-9.88840e-06,0.00442188,-9.375e-05,6.13406
-9.88820e-06,0.00454688,-0.000421875,6.12094
-9.88800e-06,0.004125,0,6.11781
-9.88780e-06,0.00410937,-0.000234375,6.105
-9.88760e-06,0.00453125,0.000359375,6.12469
-9.88740e-06,0.00464063,0.000515625,6.12719
-9.88720e-06,0.004375,0.00034375,6.12938
-9.88700e-06,0.004375,0.000515625,6.12281
-9.88680e-06,0.00464063,0.00065625,6.1175
-9.88660e-06,0.00478125,0.00103125,6.11625
-9.88640e-06,0.00475,0.00115625,6.12375
-9.88620e-06,0.00484375,0.00109375,6.11
-9.88600e-06,0.00470313,0.00128125,6.10719
-9.88580e-06,0.00453125,0.00101563,6.10781
-9.88560e-06,0.00457813,0.00115625,6.115
-9.88540e-06,0.00465625,0.00128125,6.10469
-9.88520e-06,0.00471875,0.00189062,6.10219
-9.88500e-06,0.0051875,0.00165625,6.09438
-9.88480e-06,0.00490625,0.00151563,6.08656
-9.88460e-06,0.00504688,0.00173438,6.08625
-9.88440e-06,0.00517188,0.0015,6.09688
-9.88420e-06,0.0053125,0.00134375,6.08719
-9.88400e-06,0.00540625,0.00182813,6.0675
-9.88380e-06,0.0051875,0.0024375,6.06375
-9.88360e-06,0.0055625,0.002125,6.07219
-9.88340e-06,0.0053125,0.00215625,6.07531
-9.88320e-06,0.00520313,0.00235937,6.06656
-9.88300e-06,0.0050625,0.00190625,6.05469
-9.88280e-06,0.00535937,0.00257812,6.05625
-9.88260e-06,0.00548438,0.002375,6.045
-9.88240e-06,0.00573438,0.00220313,6.04063
-9.88220e-06,0.00614063,0.0025,6.04531
-9.88200e-06,0.00626563,0.00232813,6.06125
-9.88180e-06,0.0063125,0.00245313,6.05438
-9.88160e-06,0.00610938,0.00260938,6.04563
-9.88140e-06,0.00609375,0.00307812,6.03375
-9.88120e-06,0.00582813,0.00290625,6.03219
-9.88100e-06,0.0065625,0.0031875,6.03969
-9.88080e-06,0.00573438,0.00273438,6.04406
-9.88060e-06,0.005875,0.0031875,6.04406
-9.88040e-06,0.0063125,0.00326562,6.03375
-9.88020e-06,0.0066875,0.00351563,6.03031
-9.88000e-06,0.00665625,0.00353125,6.03031
-9.87980e-06,0.00670313,0.00351563,6.02344
-9.87960e-06,0.00732813,0.00353125,6.03125
-9.87940e-06,0.00690625,0.00371875,6.0375
-9.87920e-06,0.0071875,0.0043125,6.04344
-9.87900e-06,0.00698438,0.00417187,6.03844
-9.87880e-06,0.00729688,0.00373438,6.03094
-9.87860e-06,0.00734375,0.00414063,6.03188
-9.87840e-06,0.00754688,0.00403125,6.0375
-9.87820e-06,0.0075625,0.00435937,6.02875
-9.87800e-06,0.00746875,0.0045625,6.03656
-9.87780e-06,0.00779688,0.00489062,6.04031
-9.87760e-06,0.00795313,0.00451563,6.04063
-9.87740e-06,0.0079375,0.004875,6.05031
-9.87720e-06,0.00770313,0.00460938,6.04875
-9.87700e-06,0.008,0.004875,6.04156
-9.87680e-06,0.00795313,0.00534375,6.02969
-9.87660e-06,0.00817188,0.005,6.03094
-9.87640e-06,0.00842188,0.00521875,6.03281
-9.87620e-06,0.0086875,0.00565625,6.03719
-9.87600e-06,0.00846875,0.00576562,6.04563
-9.87580e-06,0.008875,0.00567187,6.0425
-9.87560e-06,0.00882813,0.00557812,6.0375
-9.87540e-06,0.00864063,0.0061875,6.04281
-9.87520e-06,0.0085625,0.00621875,6.065
-9.87500e-06,0.0088125,0.0061875,6.06062
-9.87480e-06,0.00879688,0.00601563,6.05906
-9.87460e-06,0.0090625,0.00670313,6.05813
-9.87440e-06,0.00871875,0.00623438,6.05281
-9.87420e-06,0.00884375,0.007125,6.0625
-9.87400e-06,0.00915625,0.0071875,6.07125
-9.87380e-06,0.00903125,0.0071875,6.07313
-9.87360e-06,0.00910938,0.00678125,6.07437
-9.87340e-06,0.00920313,0.00707812,6.06188
-9.87320e-06,0.00926562,0.00745313,6.06344
-9.87300e-06,0.00923438,0.00740625,6.06281
-9.87280e-06,0.00939063,0.00739062,6.0725
-9.87260e-06,0.0096875,0.00759375,6.08563
-9.87240e-06,0.00989063,0.008,6.085
-9.87220e-06,0.00971875,0.00784375,6.07656
-9.87200e-06,0.00967188,0.0079375,6.07563
-9.87180e-06,0.00976562,0.008125,6.08969
-9.87160e-06,0.00973438,0.00807812,6.09813
-9.87140e-06,0.00957813,0.00771875,6.09531
-9.87120e-06,0.00967188,0.0079375,6.10313
-9.87100e-06,0.0100625,0.00823438,6.09656
-9.87080e-06,0.010125,0.00823438,6.08844
-9.87060e-06,0.00976562,0.00795313,6.08969
-9.87040e-06,0.00926562,0.00832813,6.09844
-9.87020e-06,0.0100625,0.00832813,6.10313
-9.87000e-06,0.0101719,0.00890625,6.10438
-9.86980e-06,0.00964063,0.00867187,6.09938
-9.86960e-06,0.0095625,0.00870312,6.11844
-9.86940e-06,0.010125,0.00857812,6.11063
-9.86920e-06,0.0101406,0.00867187,6.10562
-9.86900e-06,0.00984375,0.0084375,6.10625
-9.86880e-06,0.00989063,0.00857812,6.11406
-9.86860e-06,0.00964063,0.00795313,6.11937
-9.86840e-06,0.0099375,0.008375,6.12813
-9.86820e-06,0.0103281,0.00876562,6.1275
-9.86800e-06,0.00984375,0.0084375,6.13063
-9.86780e-06,0.0101563,0.00882813,6.12719
-9.86760e-06,0.0101719,0.00892188,6.11781
-9.86740e-06,0.0102656,0.00895313,6.12281
-9.86720e-06,0.0100313,0.00895313,6.125
-9.86700e-06,0.00978125,0.00857812,6.11781
-9.86680e-06,0.0100625,0.00889062,6.12594
-9.86660e-06,0.0100625,0.00845313,6.1375
-9.86640e-06,0.0103438,0.00914063,6.1475
-9.86620e-06,0.00978125,0.00907812,6.14344
-9.86600e-06,0.00990625,0.0085,6.135
-9.86580e-06,0.0101563,0.0085,6.13125
-9.86560e-06,0.0100313,0.00848437,6.13844
-9.86540e-06,0.0102187,0.008625,6.13969
-9.86520e-06,0.0105156,0.00889062,6.13625
-9.86500e-06,0.01,0.00876562,6.1325
-9.86480e-06,0.0100938,0.008375,6.13687
-9.86460e-06,0.0101563,0.00884375,6.13813
-9.86440e-06,0.0103438,0.00840625,6.14094
-9.86420e-06,0.0102187,0.0083125,6.13281
-9.86400e-06,0.01,0.00854688,6.14
-9.86380e-06,0.0101094,0.00848437,6.1425
-9.86360e-06,0.00979688,0.00842188,6.14125
-9.86340e-06,0.010125,0.00851563,6.13813
-9.86320e-06,0.01075,0.008,6.12312
-9.86300e-06,0.0100469,0.0080625,6.12125
-9.86280e-06,0.00970313,0.00803125,6.12906
-9.86260e-06,0.00990625,0.00817187,6.13125
-9.86240e-06,0.009625,0.00803125,6.12
-9.86220e-06,0.00957813,0.00760938,6.10344
-9.86200e-06,0.0101875,0.0073125,6.11813
-9.86180e-06,0.0103594,0.007375,6.13
-9.86160e-06,0.00984375,0.00710938,6.12594
-9.86140e-06,0.009875,0.00728125,6.12094
-9.86120e-06,0.00982813,0.00728125,6.11188
-9.86100e-06,0.00973438,0.00773438,6.11
-9.86080e-06,0.0100625,0.0070625,6.11125
-9.86060e-06,0.00971875,0.00732813,6.10531
-9.86040e-06,0.009875,0.00714063,6.11
-9.86020e-06,0.0098125,0.00695313,6.09656
-9.86000e-06,0.0100938,0.0068125,6.10594
-9.85980e-06,0.00953125,0.0060625,6.10406
-9.85960e-06,0.00976562,0.00626562,6.09219
-9.85940e-06,0.0100781,0.0065625,6.08031
-9.85920e-06,0.00998438,0.00625,6.08125
-9.85900e-06,0.0098125,0.00640625,6.08375
-9.85880e-06,0.00953125,0.00621875,6.07938
-9.85860e-06,0.00978125,0.00623438,6.07875
-9.85840e-06,0.00935938,0.00584375,6.0825
-9.85820e-06,0.00970313,0.006125,6.08219
-9.85800e-06,0.00945313,0.00601563,6.08781
-9.85780e-06,0.0095625,0.00625,6.07844
-9.85760e-06,0.00985938,0.00598437,6.08063
-9.85740e-06,0.00940625,0.00570313,6.06344
-9.85720e-06,0.00925,0.00551563,6.04938
-9.85700e-06,0.009,0.00554688,6.03906
-9.85680e-06,0.00934375,0.00570313,6.04531
-9.85660e-06,0.00909375,0.005375,6.06313
-9.85640e-06,0.00917188,0.00523438,6.06594
-9.85620e-06,0.00951562,0.00510938,6.0625
-9.85600e-06,0.0089375,0.00532813,6.05375
-9.85580e-06,0.00907813,0.00520313,6.04656
-9.85560e-06,0.00928125,0.00490625,6.05063
-9.85540e-06,0.00926562,0.00507812,6.05656
-9.85520e-06,0.00860938,0.00509375,6.05219
-9.85500e-06,0.00878125,0.00503125,6.04469
-9.85480e-06,0.00901562,0.00510938,6.03313
-9.85460e-06,0.008875,0.00565625,6.01656
-9.85440e-06,0.00878125,0.004875,6.02531
-9.85420e-06,0.00907813,0.00454688,6.04312
-9.85400e-06,0.00925,0.0045625,6.06156
-9.85380e-06,0.00878125,0.00451563,6.05781
-9.85360e-06,0.0085625,0.00495313,6.04563
-9.85340e-06,0.00882813,0.004625,6.02531
-9.85320e-06,0.00859375,0.00442188,6.03938
-9.85300e-06,0.00904688,0.00460938,6.04063
-9.85280e-06,0.00871875,0.0045625,6.04969
-9.85260e-06,0.0084375,0.004875,6.04594
-9.85240e-06,0.00834375,0.004375,6.03688
-9.85220e-06,0.00832813,0.00401563,6.02875
-9.85200e-06,0.00840625,0.004125,6.0325
-9.85180e-06,0.00884375,0.00440625,6.0325
-9.85160e-06,0.0089375,0.00445313,6.03156
-9.85140e-06,0.00889063,0.00459375,6.02562
-9.85120e-06,0.00804688,0.00454688,6.03125
-9.85100e-06,0.00814063,0.00435937,6.03219
-9.85080e-06,0.00846875,0.00442188,6.03469
-9.85060e-06,0.00839063,0.00475,6.04281
-9.85040e-06,0.008625,0.00451563,6.04594
-9.85020e-06,0.00848438,0.00428125,6.04188
-9.85000e-06,0.00810938,0.00409375,6.02719
-9.84980e-06,0.0085,0.00421875,6.01625
-9.84960e-06,0.00804688,0.00414063,6.025
-9.84940e-06,0.00801562,0.00379688,6.0275
-9.84920e-06,0.00817188,0.00398437,6.02375
-9.84900e-06,0.008375,0.00423438,6.02625
-9.84880e-06,0.00784375,0.00370313,6.025
-9.84860e-06,0.00848438,0.004125,6.03156
-9.84840e-06,0.00821875,0.00371875,6.02937
-9.84820e-06,0.008125,0.0040625,6.02844
-9.84800e-06,0.00834375,0.00420313,6.03438
-9.84780e-06,0.00832813,0.00385937,6.03844
-9.84760e-06,0.00803125,0.00396875,6.04563
-9.84740e-06,0.00814063,0.00396875,6.04344
-9.84720e-06,0.00853125,0.00432813,6.03594
-9.84700e-06,0.00807813,0.00365625,6.04219
-9.84680e-06,0.00839063,0.00385937,6.0475
-9.84660e-06,0.008125,0.00371875,6.04406
-9.84640e-06,0.00796875,0.0040625,6.04375
-9.84620e-06,0.00814063,0.004125,6.05594
-9.84600e-06,0.00798438,0.00373438,6.05469
-9.84580e-06,0.0079375,0.00370313,6.04938
-9.84560e-06,0.00798438,0.0038125,6.05594
-9.84540e-06,0.00828125,0.00426562,6.06313
-9.84520e-06,0.00790625,0.00365625,6.06344
-9.84500e-06,0.00804688,0.003625,6.07188
-9.84480e-06,0.00789063,0.00359375,6.06031
-9.84460e-06,0.00785938,0.00378125,6.06375
-9.84440e-06,0.007625,0.003625,6.065
